%YAML 1.1
%TAG !u! tag:unity3d.com,2011:
--- !u!114 &11400000
MonoBehaviour:
  m_ObjectHideFlags: 0
  m_CorrespondingSourceObject: {fileID: 0}
  m_PrefabInstance: {fileID: 0}
  m_PrefabAsset: {fileID: 0}
  m_GameObject: {fileID: 0}
  m_Enabled: 1
  m_EditorHideFlags: 0
  m_Script: {fileID: 11500000, guid: 95df75eb7080d6b49a585b51054e7aea, type: 3}
  m_Name: Info_Ali1
  m_EditorClassIdentifier: 
  infoId: Info_Ali1
  isLocked: 0
  infoDescriptionFormat: Often loses focus in {0} classes.
  causesTag: {fileID: 11400000, guid: 96db94b2b2d4a3e4488f7426b86ae4da, type: 2}
  effectsTag: {fileID: 11400000, guid: 9fee75f8f8dbbfc4494a6c3a1f69b06d, type: 2}
