%YAML 1.1
%TAG !u! tag:unity3d.com,2011:
--- !u!114 &11400000
MonoBehaviour:
  m_ObjectHideFlags: 0
  m_CorrespondingSourceObject: {fileID: 0}
  m_PrefabInstance: {fileID: 0}
  m_PrefabAsset: {fileID: 0}
  m_GameObject: {fileID: 0}
  m_Enabled: 1
  m_EditorHideFlags: 0
  m_Script: {fileID: 11500000, guid: 95df75eb7080d6b49a585b51054e7aea, type: 3}
  m_Name: MC_Info3
  m_EditorClassIdentifier: 
  infoId: Zed_Info3
  isLocked: 1
  infoDescriptionFormat: Prefer {0} and cozy places.
  causesTag: {fileID: 11400000, guid: e1f3c6e43f8c3d641b8608f2e2bdc89e, type: 2}
  effectsTag: {fileID: 11400000, guid: 23154267c6fd7f840adf71d9fbfddccf, type: 2}
