%YAML 1.1
%TAG !u! tag:unity3d.com,2011:
--- !u!114 &11400000
MonoBehaviour:
  m_ObjectHideFlags: 0
  m_CorrespondingSourceObject: {fileID: 0}
  m_PrefabInstance: {fileID: 0}
  m_PrefabAsset: {fileID: 0}
  m_GameObject: {fileID: 0}
  m_Enabled: 1
  m_EditorHideFlags: 0
  m_Script: {fileID: 11500000, guid: 72fe3f93234efd24caed5537e7cce66e, type: 3}
  m_Name: OffenseSkill_UniqueArgumentSudin
  m_EditorClassIdentifier: 
  itemID: OffenseSkill_UniqueArgumentSudin
  itemName: Unique Argument Sudin 1
  itemIcon: 4
  itemCategory: 3
  description: 
  purchasePrice: 0
  sellPrice: 0
  canPurchaseMultiple: 0
  isDeletable: 0
  isLockedInitially: 0
  baseSkill: {fileID: 11400000, guid: 8ce270ed4686cc04ea265781ae3bf75b, type: 2}
  argumentsCategory: 1
  isUniqueSkill: 1
  uniqueUser: 3
  isEnhanced: 1
