%YAML 1.1
%TAG !u! tag:unity3d.com,2011:
--- !u!114 &11400000
MonoBehaviour:
  m_ObjectHideFlags: 0
  m_CorrespondingSourceObject: {fileID: 0}
  m_PrefabInstance: {fileID: 0}
  m_PrefabAsset: {fileID: 0}
  m_GameObject: {fileID: 0}
  m_Enabled: 1
  m_EditorHideFlags: 0
  m_Script: {fileID: 11500000, guid: 74306c7374a5cab4686c813bd600b089, type: 3}
  m_Name: PartyAttackSO
  m_EditorClassIdentifier: 
  offensiveEffects:
    level: 0
    damageValue: 100
    effectiveValueType: 0
    statusEffectsToInflict: []
    statusEffectHitProbability: 0
  recoveryEffects:
    level: 0
    recoveryEffects:
    - recoveryType: 2
      effectiveValue: 0
      effectiveValueType: 0
      curableStatusEffects: []
      statusBoosts: 
      _expanded: 0
    - recoveryType: 1
      effectiveValue: 50
      effectiveValueType: 1
      curableStatusEffects: []
      statusBoosts: 
      _expanded: 0
