%YAML 1.1
%TAG !u! tag:unity3d.com,2011:
--- !u!114 &11400000
MonoBehaviour:
  m_ObjectHideFlags: 0
  m_CorrespondingSourceObject: {fileID: 0}
  m_PrefabInstance: {fileID: 0}
  m_PrefabAsset: {fileID: 0}
  m_GameObject: {fileID: 0}
  m_Enabled: 1
  m_EditorHideFlags: 0
  m_Script: {fileID: 11500000, guid: 36baaa8bdcb9d8b49b9199833965d2c3, type: 3}
  m_Name: BattleCameraController Blends
  m_EditorClassIdentifier: 
  m_CustomBlends:
  - m_From: VCam_PlayerBattleIdle
    m_To: VCam_LongIdle
    m_Blend:
      m_Style: 1
      m_Time: 2
      m_CustomCurve:
        serializedVersion: 2
        m_Curve: []
        m_PreInfinity: 0
        m_PostInfinity: 0
        m_RotationOrder: 0
  - m_From: VCam_LongIdle
    m_To: VCam_PlayerBattleIdle
    m_Blend:
      m_Style: 2
      m_Time: 0.5
      m_CustomCurve:
        serializedVersion: 2
        m_Curve: []
        m_PreInfinity: 0
        m_PostInfinity: 0
        m_RotationOrder: 0
  - m_From: VCam_PlayerBattleIdle
    m_To: VCam_SingleSelectEnemiesView
    m_Blend:
      m_Style: 0
      m_Time: 0.5
      m_CustomCurve:
        serializedVersion: 2
        m_Curve: []
        m_PreInfinity: 0
        m_PostInfinity: 0
        m_RotationOrder: 0
  - m_From: VCam_PlayerBattleIdle
    m_To: VCam_SingleSelectPlayersView
    m_Blend:
      m_Style: 0
      m_Time: 0.5
      m_CustomCurve:
        serializedVersion: 2
        m_Curve: []
        m_PreInfinity: 0
        m_PostInfinity: 0
        m_RotationOrder: 0
  - m_From: VCam_SingleSelectEnemiesView
    m_To: VCam_PlayerBattleIdle
    m_Blend:
      m_Style: 0
      m_Time: 0.3
      m_CustomCurve:
        serializedVersion: 2
        m_Curve: []
        m_PreInfinity: 0
        m_PostInfinity: 0
        m_RotationOrder: 0
  - m_From: VCam_SingleSelectPlayersView
    m_To: VCam_PlayerBattleIdle
    m_Blend:
      m_Style: 2
      m_Time: 1
      m_CustomCurve:
        serializedVersion: 2
        m_Curve: []
        m_PreInfinity: 0
        m_PostInfinity: 0
        m_RotationOrder: 0
  - m_From: VCam_TurnExecution
    m_To: VCam_PlayerBattleIdle
    m_Blend:
      m_Style: 2
      m_Time: 1
      m_CustomCurve:
        serializedVersion: 2
        m_Curve: []
        m_PreInfinity: 0
        m_PostInfinity: 0
        m_RotationOrder: 0
  - m_From: VCam_PlayerBattleIdle
    m_To: VCam_MultipleEnemiesView
    m_Blend:
      m_Style: 0
      m_Time: 2
      m_CustomCurve:
        serializedVersion: 2
        m_Curve: []
        m_PreInfinity: 0
        m_PostInfinity: 0
        m_RotationOrder: 0
  - m_From: VCam_PlayerBattleIdle
    m_To: VCam_MultiplePlayersView
    m_Blend:
      m_Style: 2
      m_Time: 1
      m_CustomCurve:
        serializedVersion: 2
        m_Curve: []
        m_PreInfinity: 0
        m_PostInfinity: 0
        m_RotationOrder: 0
  - m_From: VCam_PlayerBattleIdle
    m_To: VCam_AllCharacterView
    m_Blend:
      m_Style: 0
      m_Time: 2
      m_CustomCurve:
        serializedVersion: 2
        m_Curve: []
        m_PreInfinity: 0
        m_PostInfinity: 0
        m_RotationOrder: 0
  - m_From: '**ANY CAMERA**'
    m_To: VCam_NewClassmateEnters
    m_Blend:
      m_Style: 1
      m_Time: 1
      m_CustomCurve:
        serializedVersion: 2
        m_Curve: []
        m_PreInfinity: 0
        m_PostInfinity: 0
        m_RotationOrder: 0
  - m_From: VCam_DebaterPlayer
    m_To: VCam_AllCharacterView
    m_Blend:
      m_Style: 1
      m_Time: 1
      m_CustomCurve:
        serializedVersion: 2
        m_Curve: []
        m_PreInfinity: 0
        m_PostInfinity: 0
        m_RotationOrder: 0
  - m_From: VCam_DebaterEnemy
    m_To: VCam_AllCharacterView
    m_Blend:
      m_Style: 1
      m_Time: 1
      m_CustomCurve:
        serializedVersion: 2
        m_Curve: []
        m_PreInfinity: 0
        m_PostInfinity: 0
        m_RotationOrder: 0
  - m_From: VCam_AllCharacterView
    m_To: VCam_DebaterPlayer
    m_Blend:
      m_Style: 2
      m_Time: 0.5
      m_CustomCurve:
        serializedVersion: 2
        m_Curve: []
        m_PreInfinity: 0
        m_PostInfinity: 0
        m_RotationOrder: 0
  - m_From: VCam_AllCharacterView
    m_To: VCam_DebaterEnemy
    m_Blend:
      m_Style: 2
      m_Time: 0.5
      m_CustomCurve:
        serializedVersion: 2
        m_Curve: []
        m_PreInfinity: 0
        m_PostInfinity: 0
        m_RotationOrder: 0
  - m_From: VCam_UseItem1
    m_To: VCam_UseItem2
    m_Blend:
      m_Style: 2
      m_Time: 1
      m_CustomCurve:
        serializedVersion: 2
        m_Curve: []
        m_PreInfinity: 0
        m_PostInfinity: 0
        m_RotationOrder: 0
  - m_From: '**ANY CAMERA**'
    m_To: VCam_UseItem1
    m_Blend:
      m_Style: 2
      m_Time: 1
      m_CustomCurve:
        serializedVersion: 2
        m_Curve: []
        m_PreInfinity: 0
        m_PostInfinity: 0
        m_RotationOrder: 0
