[api-updater (non-obsolete-error-filter)] 4/20/2022 6:00:21 PM : Starting C:/Program Files/Unity/Hub/Editor/2020.3.32f1/Editor/Data/Tools/ScriptUpdater/APIUpdater.NonObsoleteApiUpdaterDetector.exe
[api-updater (non-obsolete-error-filter)] 
----------------------------------
jit/startup time      : 858.2858ms
moved types parse time: 62ms
candidates parse time : 1ms
C# parse time         : 664ms
candidates check time : 100ms
console write time    : 1ms

[api-updater (non-obsolete-error-filter)] 4/21/2022 4:31:07 PM : Starting C:/Program Files/Unity/Hub/Editor/2020.3.32f1/Editor/Data/Tools/ScriptUpdater/APIUpdater.NonObsoleteApiUpdaterDetector.exe
[api-updater (non-obsolete-error-filter)] Exception caught while loading types from C:\Users\Faiz\Documents\UnityProjects\baka-to-test-copy\BakaToTest2\Library\ScriptAssemblies\Unity.CollabProxy.Editor.dll (some types may not be loaded)
	Exception of type 'System.Reflection.ReflectionTypeLoadException' was thrown.
	  at (wrapper managed-to-native) System.Reflection.Assembly.GetTypes(System.Reflection.Assembly,bool)
  at System.Reflection.Assembly.GetTypes () [0x00000] in <695d1cc93cca45069c528c15c9fdd749>:0 
  at APIUpdater.NonObsoleteApiUpdaterDetector.ExtraInfoParser+<LoadTypesWithMovedFromAttributeAsync>d__3.MoveNext () [0x000c8] in <68bff7873e0e4aa69a14dfc30bebbe3e>:0 
	Could not load file or assembly 'UnityEditor.CoreModule, Version=0.0.0.0, Culture=neutral, PublicKeyToken=null' or one of its dependencies.

[api-updater (non-obsolete-error-filter)] Exception caught while loading types from C:\Users\Faiz\Documents\UnityProjects\baka-to-test-copy\BakaToTest2\Library\ScriptAssemblies\Unity.TextMeshPro.Editor.dll (some types may not be loaded)
	Exception of type 'System.Reflection.ReflectionTypeLoadException' was thrown.
	  at (wrapper managed-to-native) System.Reflection.Assembly.GetTypes(System.Reflection.Assembly,bool)
  at System.Reflection.Assembly.GetTypes () [0x00000] in <695d1cc93cca45069c528c15c9fdd749>:0 
  at APIUpdater.NonObsoleteApiUpdaterDetector.ExtraInfoParser+<LoadTypesWithMovedFromAttributeAsync>d__3.MoveNext () [0x000c8] in <68bff7873e0e4aa69a14dfc30bebbe3e>:0 
	Could not load file or assembly 'UnityEditor.CoreModule, Version=0.0.0.0, Culture=neutral, PublicKeyToken=null' or one of its dependencies.

[api-updater (non-obsolete-error-filter)] 
----------------------------------
jit/startup time      : 219.982ms
moved types parse time: 56ms
candidates parse time : 1ms
C# parse time         : 632ms
candidates check time : 223ms
console write time    : 1ms

[api-updater (non-obsolete-error-filter)] 4/21/2022 4:31:37 PM : Starting C:/Program Files/Unity/Hub/Editor/2020.3.32f1/Editor/Data/Tools/ScriptUpdater/APIUpdater.NonObsoleteApiUpdaterDetector.exe
[api-updater (non-obsolete-error-filter)] Exception caught while loading types from C:\Users\Faiz\Documents\UnityProjects\baka-to-test-copy\BakaToTest2\Library\ScriptAssemblies\Unity.CollabProxy.Editor.dll (some types may not be loaded)
	Exception of type 'System.Reflection.ReflectionTypeLoadException' was thrown.
	  at (wrapper managed-to-native) System.Reflection.Assembly.GetTypes(System.Reflection.Assembly,bool)
  at System.Reflection.Assembly.GetTypes () [0x00000] in <695d1cc93cca45069c528c15c9fdd749>:0 
  at APIUpdater.NonObsoleteApiUpdaterDetector.ExtraInfoParser+<LoadTypesWithMovedFromAttributeAsync>d__3.MoveNext () [0x000c8] in <68bff7873e0e4aa69a14dfc30bebbe3e>:0 
	Could not load file or assembly 'UnityEditor.CoreModule, Version=0.0.0.0, Culture=neutral, PublicKeyToken=null' or one of its dependencies.

[api-updater (non-obsolete-error-filter)] Exception caught while loading types from C:\Users\Faiz\Documents\UnityProjects\baka-to-test-copy\BakaToTest2\Library\ScriptAssemblies\Unity.TextMeshPro.Editor.dll (some types may not be loaded)
	Exception of type 'System.Reflection.ReflectionTypeLoadException' was thrown.
	  at (wrapper managed-to-native) System.Reflection.Assembly.GetTypes(System.Reflection.Assembly,bool)
  at System.Reflection.Assembly.GetTypes () [0x00000] in <695d1cc93cca45069c528c15c9fdd749>:0 
  at APIUpdater.NonObsoleteApiUpdaterDetector.ExtraInfoParser+<LoadTypesWithMovedFromAttributeAsync>d__3.MoveNext () [0x000c8] in <68bff7873e0e4aa69a14dfc30bebbe3e>:0 
	Could not load file or assembly 'UnityEditor.CoreModule, Version=0.0.0.0, Culture=neutral, PublicKeyToken=null' or one of its dependencies.

[api-updater (non-obsolete-error-filter)] 
----------------------------------
jit/startup time      : 70.4708ms
moved types parse time: 57ms
candidates parse time : 1ms
C# parse time         : 299ms
candidates check time : 173ms
console write time    : 0ms

[api-updater (non-obsolete-error-filter)] 4/21/2022 4:32:08 PM : Starting C:/Program Files/Unity/Hub/Editor/2020.3.32f1/Editor/Data/Tools/ScriptUpdater/APIUpdater.NonObsoleteApiUpdaterDetector.exe
[api-updater (non-obsolete-error-filter)] Exception caught while loading types from C:\Users\Faiz\Documents\UnityProjects\baka-to-test-copy\BakaToTest2\Library\ScriptAssemblies\Unity.CollabProxy.Editor.dll (some types may not be loaded)
	Exception of type 'System.Reflection.ReflectionTypeLoadException' was thrown.
	  at (wrapper managed-to-native) System.Reflection.Assembly.GetTypes(System.Reflection.Assembly,bool)
  at System.Reflection.Assembly.GetTypes () [0x00000] in <695d1cc93cca45069c528c15c9fdd749>:0 
  at APIUpdater.NonObsoleteApiUpdaterDetector.ExtraInfoParser+<LoadTypesWithMovedFromAttributeAsync>d__3.MoveNext () [0x000c8] in <68bff7873e0e4aa69a14dfc30bebbe3e>:0 
	Could not load file or assembly 'UnityEditor.CoreModule, Version=0.0.0.0, Culture=neutral, PublicKeyToken=null' or one of its dependencies.

[api-updater (non-obsolete-error-filter)] Exception caught while loading types from C:\Users\Faiz\Documents\UnityProjects\baka-to-test-copy\BakaToTest2\Library\ScriptAssemblies\Unity.TextMeshPro.Editor.dll (some types may not be loaded)
	Exception of type 'System.Reflection.ReflectionTypeLoadException' was thrown.
	  at (wrapper managed-to-native) System.Reflection.Assembly.GetTypes(System.Reflection.Assembly,bool)
  at System.Reflection.Assembly.GetTypes () [0x00000] in <695d1cc93cca45069c528c15c9fdd749>:0 
  at APIUpdater.NonObsoleteApiUpdaterDetector.ExtraInfoParser+<LoadTypesWithMovedFromAttributeAsync>d__3.MoveNext () [0x000c8] in <68bff7873e0e4aa69a14dfc30bebbe3e>:0 
	Could not load file or assembly 'UnityEditor.CoreModule, Version=0.0.0.0, Culture=neutral, PublicKeyToken=null' or one of its dependencies.

[api-updater (non-obsolete-error-filter)] 
----------------------------------
jit/startup time      : 68.0412ms
moved types parse time: 57ms
candidates parse time : 1ms
C# parse time         : 304ms
candidates check time : 203ms
console write time    : 0ms

[api-updater (non-obsolete-error-filter)] 4/21/2022 4:34:53 PM : Starting C:/Program Files/Unity/Hub/Editor/2020.3.32f1/Editor/Data/Tools/ScriptUpdater/APIUpdater.NonObsoleteApiUpdaterDetector.exe
[api-updater (non-obsolete-error-filter)] 
----------------------------------
jit/startup time      : 66.8384ms
moved types parse time: 56ms
candidates parse time : 1ms
C# parse time         : 228ms
candidates check time : 164ms
console write time    : 0ms

[api-updater (non-obsolete-error-filter)] 4/21/2022 4:35:24 PM : Starting C:/Program Files/Unity/Hub/Editor/2020.3.32f1/Editor/Data/Tools/ScriptUpdater/APIUpdater.NonObsoleteApiUpdaterDetector.exe
[api-updater (non-obsolete-error-filter)] 
----------------------------------
jit/startup time      : 68.9049ms
moved types parse time: 56ms
candidates parse time : 1ms
C# parse time         : 267ms
candidates check time : 51ms
console write time    : 0ms

[api-updater (non-obsolete-error-filter)] 4/21/2022 4:35:37 PM : Starting C:/Program Files/Unity/Hub/Editor/2020.3.32f1/Editor/Data/Tools/ScriptUpdater/APIUpdater.NonObsoleteApiUpdaterDetector.exe
[api-updater (non-obsolete-error-filter)] 
----------------------------------
jit/startup time      : 70.9337ms
moved types parse time: 56ms
candidates parse time : 1ms
C# parse time         : 226ms
candidates check time : 164ms
console write time    : 0ms

[api-updater (non-obsolete-error-filter)] 4/21/2022 4:36:47 PM : Starting C:/Program Files/Unity/Hub/Editor/2020.3.32f1/Editor/Data/Tools/ScriptUpdater/APIUpdater.NonObsoleteApiUpdaterDetector.exe
[api-updater (non-obsolete-error-filter)] 
----------------------------------
jit/startup time      : 72.0663ms
moved types parse time: 56ms
candidates parse time : 1ms
C# parse time         : 232ms
candidates check time : 122ms
console write time    : 0ms

[api-updater (non-obsolete-error-filter)] 5/19/2022 10:42:53 PM : Starting C:/Program Files/Unity/Hub/Editor/2020.3.32f1/Editor/Data/Tools/ScriptUpdater/APIUpdater.NonObsoleteApiUpdaterDetector.exe
[api-updater (non-obsolete-error-filter)] 
----------------------------------
jit/startup time      : 914.1905ms
moved types parse time: 73ms
candidates parse time : 1ms
C# parse time         : 785ms
candidates check time : 146ms
console write time    : 0ms

[api-updater (non-obsolete-error-filter)] 5/24/2022 7:30:42 PM : Starting C:/Program Files/Unity/Hub/Editor/2020.3.32f1/Editor/Data/Tools/ScriptUpdater/APIUpdater.NonObsoleteApiUpdaterDetector.exe
[api-updater (non-obsolete-error-filter)] 
----------------------------------
jit/startup time      : 852.6688ms
moved types parse time: 60ms
candidates parse time : 1ms
C# parse time         : 758ms
candidates check time : 55ms
console write time    : 0ms

[api-updater (non-obsolete-error-filter)] 5/24/2022 7:51:25 PM : Starting C:/Program Files/Unity/Hub/Editor/2020.3.32f1/Editor/Data/Tools/ScriptUpdater/APIUpdater.NonObsoleteApiUpdaterDetector.exe
[api-updater (non-obsolete-error-filter)] 
----------------------------------
jit/startup time      : 111.1014ms
moved types parse time: 66ms
candidates parse time : 1ms
C# parse time         : 286ms
candidates check time : 42ms
console write time    : 0ms

[api-updater (non-obsolete-error-filter)] 5/24/2022 7:51:43 PM : Starting C:/Program Files/Unity/Hub/Editor/2020.3.32f1/Editor/Data/Tools/ScriptUpdater/APIUpdater.NonObsoleteApiUpdaterDetector.exe
[api-updater (non-obsolete-error-filter)] 
----------------------------------
jit/startup time      : 83.9216ms
moved types parse time: 66ms
candidates parse time : 1ms
C# parse time         : 331ms
candidates check time : 45ms
console write time    : 1ms

[api-updater (non-obsolete-error-filter)] 5/25/2022 4:44:29 PM : Starting C:/Program Files/Unity/Hub/Editor/2020.3.32f1/Editor/Data/Tools/ScriptUpdater/APIUpdater.NonObsoleteApiUpdaterDetector.exe
[api-updater (non-obsolete-error-filter)] 
----------------------------------
jit/startup time      : 838.2202ms
moved types parse time: 60ms
candidates parse time : 1ms
C# parse time         : 714ms
candidates check time : 61ms
console write time    : 0ms

[api-updater (non-obsolete-error-filter)] 5/26/2022 5:19:49 PM : Starting C:/Program Files/Unity/Hub/Editor/2020.3.32f1/Editor/Data/Tools/ScriptUpdater/APIUpdater.NonObsoleteApiUpdaterDetector.exe
[api-updater (non-obsolete-error-filter)] 
----------------------------------
jit/startup time      : 850.953ms
moved types parse time: 58ms
candidates parse time : 1ms
C# parse time         : 669ms
candidates check time : 94ms
console write time    : 1ms

[api-updater (non-obsolete-error-filter)] 5/26/2022 5:20:17 PM : Starting C:/Program Files/Unity/Hub/Editor/2020.3.32f1/Editor/Data/Tools/ScriptUpdater/APIUpdater.NonObsoleteApiUpdaterDetector.exe
[api-updater (non-obsolete-error-filter)] 
----------------------------------
jit/startup time      : 73.0665ms
moved types parse time: 58ms
candidates parse time : 1ms
C# parse time         : 274ms
candidates check time : 72ms
console write time    : 0ms

[api-updater (non-obsolete-error-filter)] 5/26/2022 5:20:40 PM : Starting C:/Program Files/Unity/Hub/Editor/2020.3.32f1/Editor/Data/Tools/ScriptUpdater/APIUpdater.NonObsoleteApiUpdaterDetector.exe
[api-updater (non-obsolete-error-filter)] 
----------------------------------
jit/startup time      : 72.0656ms
moved types parse time: 58ms
candidates parse time : 1ms
C# parse time         : 224ms
candidates check time : 52ms
console write time    : 0ms

[api-updater (non-obsolete-error-filter)] 5/26/2022 5:21:09 PM : Starting C:/Program Files/Unity/Hub/Editor/2020.3.32f1/Editor/Data/Tools/ScriptUpdater/APIUpdater.NonObsoleteApiUpdaterDetector.exe
[api-updater (non-obsolete-error-filter)] 
----------------------------------
jit/startup time      : 72.5543ms
moved types parse time: 58ms
candidates parse time : 1ms
C# parse time         : 218ms
candidates check time : 50ms
console write time    : 0ms

[api-updater (non-obsolete-error-filter)] 5/26/2022 5:21:32 PM : Starting C:/Program Files/Unity/Hub/Editor/2020.3.32f1/Editor/Data/Tools/ScriptUpdater/APIUpdater.NonObsoleteApiUpdaterDetector.exe
[api-updater (non-obsolete-error-filter)] 
----------------------------------
jit/startup time      : 71.065ms
moved types parse time: 60ms
candidates parse time : 1ms
C# parse time         : 274ms
candidates check time : 49ms
console write time    : 0ms

[api-updater (non-obsolete-error-filter)] 5/26/2022 5:21:49 PM : Starting C:/Program Files/Unity/Hub/Editor/2020.3.32f1/Editor/Data/Tools/ScriptUpdater/APIUpdater.NonObsoleteApiUpdaterDetector.exe
[api-updater (non-obsolete-error-filter)] 
----------------------------------
jit/startup time      : 69.0632ms
moved types parse time: 60ms
candidates parse time : 1ms
C# parse time         : 209ms
candidates check time : 35ms
console write time    : 0ms

[api-updater (non-obsolete-error-filter)] 5/26/2022 5:22:44 PM : Starting C:/Program Files/Unity/Hub/Editor/2020.3.32f1/Editor/Data/Tools/ScriptUpdater/APIUpdater.NonObsoleteApiUpdaterDetector.exe
[api-updater (non-obsolete-error-filter)] 
----------------------------------
jit/startup time      : 70.2849ms
moved types parse time: 56ms
candidates parse time : 1ms
C# parse time         : 272ms
candidates check time : 49ms
console write time    : 0ms

[api-updater (non-obsolete-error-filter)] 5/26/2022 5:22:56 PM : Starting C:/Program Files/Unity/Hub/Editor/2020.3.32f1/Editor/Data/Tools/ScriptUpdater/APIUpdater.NonObsoleteApiUpdaterDetector.exe
[api-updater (non-obsolete-error-filter)] 
----------------------------------
jit/startup time      : 71.6237ms
moved types parse time: 56ms
candidates parse time : 1ms
C# parse time         : 235ms
candidates check time : 56ms
console write time    : 0ms

[api-updater (non-obsolete-error-filter)] 5/26/2022 10:16:34 PM : Starting C:/Program Files/Unity/Hub/Editor/2020.3.32f1/Editor/Data/Tools/ScriptUpdater/APIUpdater.NonObsoleteApiUpdaterDetector.exe
[api-updater (non-obsolete-error-filter)] 
----------------------------------
jit/startup time      : 1061.8666ms
moved types parse time: 74ms
candidates parse time : 1ms
C# parse time         : 783ms
candidates check time : 58ms
console write time    : 0ms

[api-updater (non-obsolete-error-filter)] 5/26/2022 10:18:20 PM : Starting C:/Program Files/Unity/Hub/Editor/2020.3.32f1/Editor/Data/Tools/ScriptUpdater/APIUpdater.NonObsoleteApiUpdaterDetector.exe
[api-updater (non-obsolete-error-filter)] Exception caught while loading types from C:\Users\Faiz\Documents\UnityProjects\baka-to-test-copy\BakaToTest2\Library\ScriptAssemblies\Unity.CollabProxy.Editor.dll (some types may not be loaded)
	Exception of type 'System.Reflection.ReflectionTypeLoadException' was thrown.
	  at (wrapper managed-to-native) System.Reflection.Assembly.GetTypes(System.Reflection.Assembly,bool)
  at System.Reflection.Assembly.GetTypes () [0x00000] in <695d1cc93cca45069c528c15c9fdd749>:0 
  at APIUpdater.NonObsoleteApiUpdaterDetector.ExtraInfoParser+<LoadTypesWithMovedFromAttributeAsync>d__3.MoveNext () [0x000c8] in <68bff7873e0e4aa69a14dfc30bebbe3e>:0 
	Could not load file or assembly 'UnityEditor.CoreModule, Version=0.0.0.0, Culture=neutral, PublicKeyToken=null' or one of its dependencies.

[api-updater (non-obsolete-error-filter)] Exception caught while loading types from C:\Users\Faiz\Documents\UnityProjects\baka-to-test-copy\BakaToTest2\Library\ScriptAssemblies\Unity.TextMeshPro.Editor.dll (some types may not be loaded)
	Exception of type 'System.Reflection.ReflectionTypeLoadException' was thrown.
	  at (wrapper managed-to-native) System.Reflection.Assembly.GetTypes(System.Reflection.Assembly,bool)
  at System.Reflection.Assembly.GetTypes () [0x00000] in <695d1cc93cca45069c528c15c9fdd749>:0 
  at APIUpdater.NonObsoleteApiUpdaterDetector.ExtraInfoParser+<LoadTypesWithMovedFromAttributeAsync>d__3.MoveNext () [0x000c8] in <68bff7873e0e4aa69a14dfc30bebbe3e>:0 
	Could not load file or assembly 'UnityEditor.CoreModule, Version=0.0.0.0, Culture=neutral, PublicKeyToken=null' or one of its dependencies.

[api-updater (non-obsolete-error-filter)] 
----------------------------------
jit/startup time      : 77.0696ms
moved types parse time: 57ms
candidates parse time : 1ms
C# parse time         : 345ms
candidates check time : 69ms
console write time    : 0ms

