%YAML 1.1
%TAG !u! tag:unity3d.com,2011:
--- !u!21 &2100000
Material:
  serializedVersion: 6
  m_ObjectHideFlags: 0
  m_CorrespondingSourceObject: {fileID: 0}
  m_PrefabInstance: {fileID: 0}
  m_PrefabAsset: {fileID: 0}
  m_Name: AN_Bush_Leaves
  m_Shader: {fileID: 4800000, guid: 0154318cd2c5a3747a66420b5d885dd5, type: 3}
  m_ShaderKeywords: _COLOR2ENABLE_ON _COLOR2OVERLAYTYPE_VERTEX_POSITION_BASED _SNOWOVERLAYTYPE_WORLD_NORMAL_BASED
    _TREETYPE_BUSH _WIND_ON
  m_LightmapFlags: 4
  m_EnableInstancingVariants: 0
  m_DoubleSidedGI: 0
  m_CustomRenderQueue: -1
  stringTagMap: {}
  disabledShaderPasses: []
  m_SavedProperties:
    serializedVersion: 3
    m_TexEnvs:
    - _BumpMap:
        m_Texture: {fileID: 0}
        m_Scale: {x: 1, y: 1}
        m_Offset: {x: 0, y: 0}
    - _DetailAlbedoMap:
        m_Texture: {fileID: 0}
        m_Scale: {x: 1, y: 1}
        m_Offset: {x: 0, y: 0}
    - _DetailMask:
        m_Texture: {fileID: 0}
        m_Scale: {x: 1, y: 1}
        m_Offset: {x: 0, y: 0}
    - _DetailNormalMap:
        m_Texture: {fileID: 0}
        m_Scale: {x: 1, y: 1}
        m_Offset: {x: 0, y: 0}
    - _EmissionMap:
        m_Texture: {fileID: 0}
        m_Scale: {x: 1, y: 1}
        m_Offset: {x: 0, y: 0}
    - _LeavesTexture:
        m_Texture: {fileID: 2800000, guid: ef2a673a544a66d498aee12d0cdc42a7, type: 3}
        m_Scale: {x: 1, y: 1}
        m_Offset: {x: 0, y: 0}
    - _MainTex:
        m_Texture: {fileID: 0}
        m_Scale: {x: 1, y: 1}
        m_Offset: {x: 0, y: 0}
    - _MetallicGlossMap:
        m_Texture: {fileID: 0}
        m_Scale: {x: 1, y: 1}
        m_Offset: {x: 0, y: 0}
    - _Normal:
        m_Texture: {fileID: 0}
        m_Scale: {x: 1, y: 1}
        m_Offset: {x: 0, y: 0}
    - _NormalMap:
        m_Texture: {fileID: 0}
        m_Scale: {x: 1, y: 1}
        m_Offset: {x: 0, y: 0}
    - _OcclusionMap:
        m_Texture: {fileID: 0}
        m_Scale: {x: 1, y: 1}
        m_Offset: {x: 0, y: 0}
    - _ParallaxMap:
        m_Texture: {fileID: 0}
        m_Scale: {x: 1, y: 1}
        m_Offset: {x: 0, y: 0}
    - _SmoothnessTexture1:
        m_Texture: {fileID: 0}
        m_Scale: {x: 1, y: 1}
        m_Offset: {x: 0, y: 0}
    - _SmoothnessTexture3:
        m_Texture: {fileID: 0}
        m_Scale: {x: 1, y: 1}
        m_Offset: {x: 0, y: 0}
    - _SnowMask:
        m_Texture: {fileID: 2800000, guid: 16d574e53541bba44a84052fa38778df, type: 3}
        m_Scale: {x: 0.3, y: 0.3}
        m_Offset: {x: 0, y: 0}
    - _SnowTexture:
        m_Texture: {fileID: 0}
        m_Scale: {x: 1, y: 1}
        m_Offset: {x: 0, y: 0}
    - _Texture0:
        m_Texture: {fileID: 0}
        m_Scale: {x: 1, y: 1}
        m_Offset: {x: 0, y: 0}
    - _Texture00:
        m_Texture: {fileID: 2800000, guid: ef2a673a544a66d498aee12d0cdc42a7, type: 3}
        m_Scale: {x: 1, y: 1}
        m_Offset: {x: 0, y: 0}
    - _TextureSample0:
        m_Texture: {fileID: 0}
        m_Scale: {x: 1, y: 1}
        m_Offset: {x: 0, y: 0}
    - _texcoord:
        m_Texture: {fileID: 0}
        m_Scale: {x: 1, y: 1}
        m_Offset: {x: 0, y: 0}
    m_Floats:
    - _AlphaCutoff: 0.35
    - _BumpScale: 1
    - _Color2Enable: 1
    - _Color2Fade: 0.28
    - _Color2Int: 0.3
    - _Color2Level: -1.1
    - _Color2OverlayType: 0
    - _Color2Power: 3.25
    - _Cutoff: 0.25
    - _DetailNormalMapScale: 1
    - _DirectLightInt: 1
    - _DirectLightInt1: 1
    - _DirectLightOffset: 0
    - _DirectLightOffset1: 0
    - _DstBlend: 0
    - _Fixthebaseoffoliage: 0
    - _Float2: 0
    - _GlossMapScale: 1
    - _Glossiness: 0.5
    - _GlossyReflections: 0
    - _IndirectLightInt: 1
    - _IndirectLightInt1: 1
    - _InvertColor2: 0
    - _Keyword0: 0
    - _Metallic: 0
    - _Mode: 0
    - _NormalInt: 1
    - _OcclusionStrength: 1
    - _Parallax: 0.02
    - _SNOW: 0
    - _Smoothness: 0.1
    - _Smoothness1: 0.1
    - _SmoothnessTextureChannel: 0
    - _Snow: 0
    - _SnowAmount: 0.4
    - _SnowFade: 0.03
    - _SnowLevel: 0
    - _SnowOverlayType: 0
    - _SnowTiling: 0.15
    - _SpecularHighlights: 1
    - _SrcBlend: 1
    - _Tiling: 1
    - _TransAmbient: 0
    - _TransDirect: 1
    - _TransNormalDistortion: 0
    - _TransScattering: 1
    - _TransShadow: 1
    - _Translucency: 2
    - _TranslucencyInt: 10
    - _TranslucencyInt1: 1
    - _TreeType: 2
    - _UVSec: 0
    - _WIND: 1
    - _Wind: 1
    - _WindForce: 0.4
    - _WindSpeed: 0.15
    - _WindWavesScale: 0.15
    - _ZWrite: 1
    - __dirty: 0
    m_Colors:
    - _Color: {r: 1, g: 1, b: 1, a: 1}
    - _Color1: {r: 0.039999988, g: 0.4, b: 0.07272723, a: 0}
    - _Color2: {r: 0.3715646, g: 0.67058825, b: 0, a: 0}
    - _EmissionColor: {r: 0, g: 0, b: 0, a: 1}
    - _SnowColor: {r: 1, g: 0.7400185, b: 0, a: 0}
  m_BuildTextureStacks: []
