%YAML 1.1
%TAG !u! tag:unity3d.com,2011:
--- !u!114 &11400000
MonoBehaviour:
  m_ObjectHideFlags: 0
  m_CorrespondingSourceObject: {fileID: 0}
  m_PrefabInstance: {fileID: 0}
  m_PrefabAsset: {fileID: 0}
  m_GameObject: {fileID: 0}
  m_Enabled: 1
  m_EditorHideFlags: 0
  m_Script: {fileID: 11500000, guid: 2a697e0967d8e1041b9d85bf9225a7ee, type: 3}
  m_Name: SubjectStatsUpgrade_English
  m_EditorClassIdentifier: 
  subjectStatsToUpgrade:
    modifiers: []
    subject: 1
    score: 1
    isHidden: 0
  baseStatsToUpgrade:
    modifiers: []
    statsName: 1
    statsAmount: 1
    isUpgradable: 1
