%YAML 1.1
%TAG !u! tag:unity3d.com,2011:
--- !u!114 &11400000
MonoBehaviour:
  m_ObjectHideFlags: 0
  m_CorrespondingSourceObject: {fileID: 0}
  m_PrefabInstance: {fileID: 0}
  m_PrefabAsset: {fileID: 0}
  m_GameObject: {fileID: 0}
  m_Enabled: 1
  m_EditorHideFlags: 0
  m_Script: {fileID: 11500000, guid: 95df75eb7080d6b49a585b51054e7aea, type: 3}
  m_Name: Info_Bakar3
  m_EditorClassIdentifier: 
  infoId: Info_Bakar3
  isLocked: 0
  infoDescriptionFormat: Too shy in front of {0}.
  causesTag: {fileID: 11400000, guid: f911b8232f345dc42a652ffe2aae335b, type: 2}
  effectsTag: {fileID: 11400000, guid: 3cef8a67432477042a2eb81a5af74781, type: 2}
