%YAML 1.1
%TAG !u! tag:unity3d.com,2011:
--- !u!114 &11400000
MonoBehaviour:
  m_ObjectHideFlags: 0
  m_CorrespondingSourceObject: {fileID: 0}
  m_PrefabInstance: {fileID: 0}
  m_PrefabAsset: {fileID: 0}
  m_GameObject: {fileID: 0}
  m_Enabled: 1
  m_EditorHideFlags: 0
  m_Script: {fileID: 11500000, guid: 95df75eb7080d6b49a585b51054e7aea, type: 3}
  m_Name: Info_Bakar1
  m_EditorClassIdentifier: 
  infoId: Info_Bakar1
  isLocked: 0
  infoDescriptionFormat: Loves {0} more than anything. It is the only thing that
    can motivates him to the max.
  causesTag: {fileID: 11400000, guid: e26779afb9634c043ac76f9be4f54124, type: 2}
  effectsTag: {fileID: 11400000, guid: 23154267c6fd7f840adf71d9fbfddccf, type: 2}
