%YAML 1.1
%TAG !u! tag:unity3d.com,2011:
--- !u!114 &11400000
MonoBehaviour:
  m_ObjectHideFlags: 0
  m_CorrespondingSourceObject: {fileID: 0}
  m_PrefabInstance: {fileID: 0}
  m_PrefabAsset: {fileID: 0}
  m_GameObject: {fileID: 0}
  m_Enabled: 1
  m_EditorHideFlags: 0
  m_Script: {fileID: 11500000, guid: 919003d254421c04d88c3e910b7c46d9, type: 3}
  m_Name: KnockoutChanceDown
  m_EditorClassIdentifier: 
  effectName: Knockout Chance
  effectValue: -5
  isMultiplicativeEffect: 0
  statsEnum: 10
