%YAML 1.1
%TAG !u! tag:unity3d.com,2011:
--- !u!114 &11400000
MonoBehaviour:
  m_ObjectHideFlags: 0
  m_CorrespondingSourceObject: {fileID: 0}
  m_PrefabInstance: {fileID: 0}
  m_PrefabAsset: {fileID: 0}
  m_GameObject: {fileID: 0}
  m_Enabled: 1
  m_EditorHideFlags: 0
  m_Script: {fileID: 11500000, guid: 9657545cc2a9c5c4e9973dfb5a913a50, type: 3}
  m_Name: Evasioneer
  m_EditorClassIdentifier: 
  orderName: Evasioneer
  orderDescription: Increases Agility by 20%.
  orderIcon: {fileID: 0}
  listIcon: 6
  aimedTo: 5
  orderDuration: 4
  orderCost: 1
  orderHolder: {fileID: 0}
  useOrderInBattleEventChannel: {fileID: 11400000, guid: 1a913fba6cfd19a45a82ef685514bb23,
    type: 2}
  combatModifier:
    damageModifier: 1
    concentrationModifier: 1
    agilityModifier: 1.2
    critRateModifier: 0
