%YAML 1.1
%TAG !u! tag:unity3d.com,2011:
--- !u!114 &11400000
MonoBehaviour:
  m_ObjectHideFlags: 0
  m_CorrespondingSourceObject: {fileID: 0}
  m_PrefabInstance: {fileID: 0}
  m_PrefabAsset: {fileID: 0}
  m_GameObject: {fileID: 0}
  m_Enabled: 1
  m_EditorHideFlags: 0
  m_Script: {fileID: 11500000, guid: 0a42fdd33a84c1448b8828dc2fef9f0f, type: 3}
  m_Name: WorldTimeEventStorage
  m_EditorClassIdentifier: 
  events:
  - year: 2022
    month: 5
    day: 28
    events:
    - daySession: 0
      events:
      - name: Test Event
        description: Test Event Desc
        triggerEvent:
          m_PersistentCalls:
            m_Calls: []
