%YAML 1.1
%TAG !u! tag:unity3d.com,2011:
--- !u!114 &11400000
MonoBehaviour:
  m_ObjectHideFlags: 0
  m_CorrespondingSourceObject: {fileID: 0}
  m_PrefabInstance: {fileID: 0}
  m_PrefabAsset: {fileID: 0}
  m_GameObject: {fileID: 0}
  m_Enabled: 1
  m_EditorHideFlags: 0
  m_Script: {fileID: 11500000, guid: 95df75eb7080d6b49a585b51054e7aea, type: 3}
  m_Name: EOne_Info3
  m_EditorClassIdentifier: 
  infoId: EOne_Info3
  isLocked: 1
  infoDescriptionFormat: Too laid back on Monday.
  infoTags:
  - {fileID: 11400000, guid: 001963a9ceb2e4f42ad205a54f55ccb9, type: 2}
