%YAML 1.1
%TAG !u! tag:unity3d.com,2011:
--- !u!114 &11400000
MonoBehaviour:
  m_ObjectHideFlags: 0
  m_CorrespondingSourceObject: {fileID: 0}
  m_PrefabInstance: {fileID: 0}
  m_PrefabAsset: {fileID: 0}
  m_GameObject: {fileID: 0}
  m_Enabled: 1
  m_EditorHideFlags: 0
  m_Script: {fileID: 11500000, guid: 5fb421ba6f6881c4caf065fd1cefaa02, type: 3}
  m_Name: Haris_SupportArgument
  m_EditorClassIdentifier: 
  debateHelpers:
  - level: 1
    argumentName: Reliable Assist
    ownerIcon: {fileID: 21300000, guid: afe28e673c08919448fec772472a67e6, type: 3}
    _debateSupportType: 1
    debateSupportValue: -2
  - level: 2
    argumentName: Reliable Leader
    ownerIcon: {fileID: 21300000, guid: afe28e673c08919448fec772472a67e6, type: 3}
    _debateSupportType: 3
    debateSupportValue: 0
