%YAML 1.1
%TAG !u! tag:unity3d.com,2011:
--- !u!114 &11400000
MonoBehaviour:
  m_ObjectHideFlags: 0
  m_CorrespondingSourceObject: {fileID: 0}
  m_PrefabInstance: {fileID: 0}
  m_PrefabAsset: {fileID: 0}
  m_GameObject: {fileID: 0}
  m_Enabled: 1
  m_EditorHideFlags: 0
  m_Script: {fileID: 11500000, guid: 5fb421ba6f6881c4caf065fd1cefaa02, type: 3}
  m_Name: Nabil_SupportArgument
  m_EditorClassIdentifier: 
  argumentHelpers:
  - level: 0
    argumentName: Sloppy Theory
    ownerIcon: {fileID: 21300000, guid: 76eb3496601deb940acbd0c665de03c8, type: 3}
    combatSupports:
    - combatSupportType: 3
      skillDamageMultiplier: 1.5
      stressAffectValue: 30
      _expanded: 1
    combatHelpDescription: Increases damage by 150%.
    conflictSupports:
    - conflictSupportType: 5
      addDefenseValue: 2
      addAttackValue: 3
      deductOpponentDefenseValue: 2
      deductOpponentAttackValue: 0
      stealOpponentCoresValue: 2
      _expanded: 1
    conflictHelpDescription: Remove opponent's Defense Point completely.
