%YAML 1.1
%TAG !u! tag:unity3d.com,2011:
--- !u!114 &11400000
MonoBehaviour:
  m_ObjectHideFlags: 0
  m_CorrespondingSourceObject: {fileID: 0}
  m_PrefabInstance: {fileID: 0}
  m_PrefabAsset: {fileID: 0}
  m_GameObject: {fileID: 0}
  m_Enabled: 1
  m_EditorHideFlags: 0
  m_Script: {fileID: 11500000, guid: 5fb421ba6f6881c4caf065fd1cefaa02, type: 3}
  m_Name: Uriel_SupportArgument
  m_EditorClassIdentifier: 
  argumentHelpers:
  - level: 0
    argumentName: Temporary Luxury
    ownerIcon: {fileID: 21300000, guid: d5fa5ec88bc61e24b8df272a0144e160, type: 3}
    combatSupports:
    - combatSupportType: 2
      skillDamageMultiplier: 1.5
      stressAffectValue: 50
      _expanded: 1
    combatHelpDescription: Removes all skills' cooldown upon usage.
    conflictSupports:
    - conflictSupportType: 7
      addDefenseValue: 3
      addAttackValue: 3
      deductOpponentDefenseValue: 2
      deductOpponentAttackValue: 2
      stealOpponentCoresValue: 3
      _expanded: 1
    conflictHelpDescription: Steals 3 opponent's Cores.
