%YAML 1.1
%TAG !u! tag:unity3d.com,2011:
--- !u!114 &11400000
MonoBehaviour:
  m_ObjectHideFlags: 0
  m_CorrespondingSourceObject: {fileID: 0}
  m_PrefabInstance: {fileID: 0}
  m_PrefabAsset: {fileID: 0}
  m_GameObject: {fileID: 0}
  m_Enabled: 1
  m_EditorHideFlags: 0
  m_Script: {fileID: 11500000, guid: 27d3cc7b74f99cb41a7eb01420219665, type: 3}
  m_Name: BaseOffense_UniqueArgumentMC
  m_EditorClassIdentifier: 
  id: BaseOffense_UniqueArgumentMC
  skillName: Unique Argument MC 1
  listIcon: 4
  skillPoint: 3
  skillDescription: Use chemical reaction to inflict damage.
  subjectBased: 0
  aimedTo: 1
  cooldownDuration: 3
  roleInDebate: 1
  debateEffectType: 5
  debateEffectValue: 1
  useSkillInBattleEventChannel: {fileID: 11400000, guid: dc9533fb5c6f08f47bf810cc492f4d86,
    type: 2}
  offensiveEffect:
    damageValue: 5
    effectiveValueType: 0
    statusEffectsToInflict:
    - {fileID: 8926337373879799619, guid: c8b52aed63fe8fa418cd25fcf62f5a9c, type: 3}
    statusEffectHitProbability: 30
  canDealKO: 1
