%YAML 1.1
%TAG !u! tag:unity3d.com,2011:
--- !u!114 &11400000
MonoBehaviour:
  m_ObjectHideFlags: 0
  m_CorrespondingSourceObject: {fileID: 0}
  m_PrefabInstance: {fileID: 0}
  m_PrefabAsset: {fileID: 0}
  m_GameObject: {fileID: 0}
  m_Enabled: 1
  m_EditorHideFlags: 0
  m_Script: {fileID: 11500000, guid: 21cb495ffbca0404d878640680165899, type: 3}
  m_Name: Birches
  m_EditorClassIdentifier: 
  prefabList: []
  prefabData:
  - prefab: {fileID: 1717292912562246659, guid: 2aa0b58ab69df834998e0dda8ee6f1e5,
      type: 3}
    selected: 1
  - prefab: {fileID: 5142024575245044754, guid: 93424cf0b3e36334296f2238f970a27e,
      type: 3}
    selected: 1
  - prefab: {fileID: 8161198795115713758, guid: ccb309186cfeb104da864accb1759a08,
      type: 3}
    selected: 1
  - prefab: {fileID: 6721580270095592568, guid: e83a0ae7086756e4e845171c31ffd2ff,
      type: 3}
    selected: 1
  - prefab: {fileID: 7401005632366886789, guid: e43d88a1db43bc841ade02c7f22aa796,
      type: 3}
    selected: 1
  paintType: 0
  brushSize: 1
  minBrushSize: 0.1
  maxBrushSize: 20
  paintDeltaDistance: 0.4
  maxPaintDeltaDistance: 3
  minPaintDeltaDistance: 0.1
  prefabsPerStroke: 1
  maxprefabsPerStroke: 20
  minprefabsPerStroke: 1
  spawnHeight: 10
  addRigidbodyToPaintedPrefab: 1
  physicsIterations: 100
  checkLayer: 0
  checkTag: 0
  checkSlope: 0
  ignorePaintedPrefabs: 0
  ignoreTriggers: 1
  chainPivotAxis: 0
  chainDirection: 0
  requiredTagMask: 0
  requiredLayerMask: 0
  minRequiredSlope: 0
  maxRequiredSlope: 0
  prefabOriginOffset: {x: 0, y: 0, z: 0}
  prefabRotationOffset: {x: 0, y: 0, z: 0}
  draggingAction: 0
  rotationAxis: 0
  rotationSensitivity: 10
  parentingStyle: 2
  parent: {fileID: 0}
  rotateToMatchSurface: 0
  rotateSurfaceDirection: 0
  randomizeRotation: 1
  minXRotation: 0
  maxXRotation: 0
  minYRotation: 0
  maxYRotation: 90
  minZRotation: 0
  maxZRotation: 0
  scaleType: 1
  scaleApplicationType: 0
  minScale: 0.7
  maxScale: 1
  minXScale: 1
  maxXScale: 1
  minYScale: 1
  maxYScale: 1
  minZScale: 1
  maxZScale: 1
  parentList: []
  eraseBrushSize: 1
  minEraseBrushSize: 0.1
  maxEraseBrushSize: 20
  eraseType: 0
  checkLayerForErase: 0
  checkTagForErase: 0
  checkSlopeForErase: 0
  mustBeSelectedInBrush: 0
  requiredTagMaskForErase: 0
  requiredLayerMaskForErase: 0
  minRequiredSlopeForErase: 0
  maxRequiredSlopeForErase: 0
  eraseDetection: 0
  paintBrushHotKey: 112
  paintBrushHoldKey: 1
  removeBrushHotKey: 306
  removeBrushHoldKey: 1
  disableBrushHotKey: 105
  disableBrushHoldKey: 1
