%YAML 1.1
%TAG !u! tag:unity3d.com,2011:
--- !u!181963792 &2655988077585873504
Preset:
  m_ObjectHideFlags: 0
  m_CorrespondingSourceObject: {fileID: 0}
  m_PrefabInstance: {fileID: 0}
  m_PrefabAsset: {fileID: 0}
  m_Name: MC_Joint
  m_TargetType:
    m_NativeTypeID: 21
    m_ManagedTypePPtr: {fileID: 0}
    m_ManagedTypeFallback: 
  m_Properties:
  - target: {fileID: 0}
    propertyPath: m_Shader
    value: 
    objectReference: {fileID: 4800000, guid: 1627552604a1a1d46b0e349914929952, type: 3}
  - target: {fileID: 0}
    propertyPath: m_ShaderKeywords
    value: L_F_RELGI_ON L_F_SS_ON N_F_EAL_ON N_F_O_ON N_F_RELGI_ON N_F_SS_ON
    objectReference: {fileID: 0}
  - target: {fileID: 0}
    propertyPath: m_LightmapFlags
    value: 4
    objectReference: {fileID: 0}
  - target: {fileID: 0}
    propertyPath: m_EnableInstancingVariants
    value: 0
    objectReference: {fileID: 0}
  - target: {fileID: 0}
    propertyPath: m_DoubleSidedGI
    value: 0
    objectReference: {fileID: 0}
  - target: {fileID: 0}
    propertyPath: m_CustomRenderQueue
    value: -1
    objectReference: {fileID: 0}
  - target: {fileID: 0}
    propertyPath: stringTagMap.Array.size
    value: 0
    objectReference: {fileID: 0}
  - target: {fileID: 0}
    propertyPath: disabledShaderPasses.Array.size
    value: 0
    objectReference: {fileID: 0}
  - target: {fileID: 0}
    propertyPath: m_SavedProperties.m_TexEnvs.Array.size
    value: 22
    objectReference: {fileID: 0}
  - target: {fileID: 0}
    propertyPath: m_SavedProperties.m_TexEnvs.Array.data[0].first
    value: _BaseMap
    objectReference: {fileID: 0}
  - target: {fileID: 0}
    propertyPath: m_SavedProperties.m_TexEnvs.Array.data[0].second.m_Texture
    value: 
    objectReference: {fileID: 0}
  - target: {fileID: 0}
    propertyPath: m_SavedProperties.m_TexEnvs.Array.data[0].second.m_Scale.x
    value: 1
    objectReference: {fileID: 0}
  - target: {fileID: 0}
    propertyPath: m_SavedProperties.m_TexEnvs.Array.data[0].second.m_Scale.y
    value: 1
    objectReference: {fileID: 0}
  - target: {fileID: 0}
    propertyPath: m_SavedProperties.m_TexEnvs.Array.data[0].second.m_Offset.x
    value: 0
    objectReference: {fileID: 0}
  - target: {fileID: 0}
    propertyPath: m_SavedProperties.m_TexEnvs.Array.data[0].second.m_Offset.y
    value: 0
    objectReference: {fileID: 0}
  - target: {fileID: 0}
    propertyPath: m_SavedProperties.m_TexEnvs.Array.data[1].first
    value: _BumpMap
    objectReference: {fileID: 0}
  - target: {fileID: 0}
    propertyPath: m_SavedProperties.m_TexEnvs.Array.data[1].second.m_Texture
    value: 
    objectReference: {fileID: 0}
  - target: {fileID: 0}
    propertyPath: m_SavedProperties.m_TexEnvs.Array.data[1].second.m_Scale.x
    value: 1
    objectReference: {fileID: 0}
  - target: {fileID: 0}
    propertyPath: m_SavedProperties.m_TexEnvs.Array.data[1].second.m_Scale.y
    value: 1
    objectReference: {fileID: 0}
  - target: {fileID: 0}
    propertyPath: m_SavedProperties.m_TexEnvs.Array.data[1].second.m_Offset.x
    value: 0
    objectReference: {fileID: 0}
  - target: {fileID: 0}
    propertyPath: m_SavedProperties.m_TexEnvs.Array.data[1].second.m_Offset.y
    value: 0
    objectReference: {fileID: 0}
  - target: {fileID: 0}
    propertyPath: m_SavedProperties.m_TexEnvs.Array.data[2].first
    value: _EmissionMap
    objectReference: {fileID: 0}
  - target: {fileID: 0}
    propertyPath: m_SavedProperties.m_TexEnvs.Array.data[2].second.m_Texture
    value: 
    objectReference: {fileID: 0}
  - target: {fileID: 0}
    propertyPath: m_SavedProperties.m_TexEnvs.Array.data[2].second.m_Scale.x
    value: 1
    objectReference: {fileID: 0}
  - target: {fileID: 0}
    propertyPath: m_SavedProperties.m_TexEnvs.Array.data[2].second.m_Scale.y
    value: 1
    objectReference: {fileID: 0}
  - target: {fileID: 0}
    propertyPath: m_SavedProperties.m_TexEnvs.Array.data[2].second.m_Offset.x
    value: 0
    objectReference: {fileID: 0}
  - target: {fileID: 0}
    propertyPath: m_SavedProperties.m_TexEnvs.Array.data[2].second.m_Offset.y
    value: 0
    objectReference: {fileID: 0}
  - target: {fileID: 0}
    propertyPath: m_SavedProperties.m_TexEnvs.Array.data[3].first
    value: _FReflection
    objectReference: {fileID: 0}
  - target: {fileID: 0}
    propertyPath: m_SavedProperties.m_TexEnvs.Array.data[3].second.m_Texture
    value: 
    objectReference: {fileID: 0}
  - target: {fileID: 0}
    propertyPath: m_SavedProperties.m_TexEnvs.Array.data[3].second.m_Scale.x
    value: 1
    objectReference: {fileID: 0}
  - target: {fileID: 0}
    propertyPath: m_SavedProperties.m_TexEnvs.Array.data[3].second.m_Scale.y
    value: 1
    objectReference: {fileID: 0}
  - target: {fileID: 0}
    propertyPath: m_SavedProperties.m_TexEnvs.Array.data[3].second.m_Offset.x
    value: 0
    objectReference: {fileID: 0}
  - target: {fileID: 0}
    propertyPath: m_SavedProperties.m_TexEnvs.Array.data[3].second.m_Offset.y
    value: 0
    objectReference: {fileID: 0}
  - target: {fileID: 0}
    propertyPath: m_SavedProperties.m_TexEnvs.Array.data[4].first
    value: _GlossTexture
    objectReference: {fileID: 0}
  - target: {fileID: 0}
    propertyPath: m_SavedProperties.m_TexEnvs.Array.data[4].second.m_Texture
    value: 
    objectReference: {fileID: 0}
  - target: {fileID: 0}
    propertyPath: m_SavedProperties.m_TexEnvs.Array.data[4].second.m_Scale.x
    value: 1
    objectReference: {fileID: 0}
  - target: {fileID: 0}
    propertyPath: m_SavedProperties.m_TexEnvs.Array.data[4].second.m_Scale.y
    value: 1
    objectReference: {fileID: 0}
  - target: {fileID: 0}
    propertyPath: m_SavedProperties.m_TexEnvs.Array.data[4].second.m_Offset.x
    value: 0
    objectReference: {fileID: 0}
  - target: {fileID: 0}
    propertyPath: m_SavedProperties.m_TexEnvs.Array.data[4].second.m_Offset.y
    value: 0
    objectReference: {fileID: 0}
  - target: {fileID: 0}
    propertyPath: m_SavedProperties.m_TexEnvs.Array.data[5].first
    value: _MCap
    objectReference: {fileID: 0}
  - target: {fileID: 0}
    propertyPath: m_SavedProperties.m_TexEnvs.Array.data[5].second.m_Texture
    value: 
    objectReference: {fileID: 0}
  - target: {fileID: 0}
    propertyPath: m_SavedProperties.m_TexEnvs.Array.data[5].second.m_Scale.x
    value: 1
    objectReference: {fileID: 0}
  - target: {fileID: 0}
    propertyPath: m_SavedProperties.m_TexEnvs.Array.data[5].second.m_Scale.y
    value: 1
    objectReference: {fileID: 0}
  - target: {fileID: 0}
    propertyPath: m_SavedProperties.m_TexEnvs.Array.data[5].second.m_Offset.x
    value: 0
    objectReference: {fileID: 0}
  - target: {fileID: 0}
    propertyPath: m_SavedProperties.m_TexEnvs.Array.data[5].second.m_Offset.y
    value: 0
    objectReference: {fileID: 0}
  - target: {fileID: 0}
    propertyPath: m_SavedProperties.m_TexEnvs.Array.data[6].first
    value: _MCapMask
    objectReference: {fileID: 0}
  - target: {fileID: 0}
    propertyPath: m_SavedProperties.m_TexEnvs.Array.data[6].second.m_Texture
    value: 
    objectReference: {fileID: 0}
  - target: {fileID: 0}
    propertyPath: m_SavedProperties.m_TexEnvs.Array.data[6].second.m_Scale.x
    value: 1
    objectReference: {fileID: 0}
  - target: {fileID: 0}
    propertyPath: m_SavedProperties.m_TexEnvs.Array.data[6].second.m_Scale.y
    value: 1
    objectReference: {fileID: 0}
  - target: {fileID: 0}
    propertyPath: m_SavedProperties.m_TexEnvs.Array.data[6].second.m_Offset.x
    value: 0
    objectReference: {fileID: 0}
  - target: {fileID: 0}
    propertyPath: m_SavedProperties.m_TexEnvs.Array.data[6].second.m_Offset.y
    value: 0
    objectReference: {fileID: 0}
  - target: {fileID: 0}
    propertyPath: m_SavedProperties.m_TexEnvs.Array.data[7].first
    value: _MainTex
    objectReference: {fileID: 0}
  - target: {fileID: 0}
    propertyPath: m_SavedProperties.m_TexEnvs.Array.data[7].second.m_Texture
    value: 
    objectReference: {fileID: 2800000, guid: 283f897e4925411ebbaa758b4cb13fc2, type: 3}
  - target: {fileID: 0}
    propertyPath: m_SavedProperties.m_TexEnvs.Array.data[7].second.m_Scale.x
    value: 1
    objectReference: {fileID: 0}
  - target: {fileID: 0}
    propertyPath: m_SavedProperties.m_TexEnvs.Array.data[7].second.m_Scale.y
    value: 1
    objectReference: {fileID: 0}
  - target: {fileID: 0}
    propertyPath: m_SavedProperties.m_TexEnvs.Array.data[7].second.m_Offset.x
    value: 0
    objectReference: {fileID: 0}
  - target: {fileID: 0}
    propertyPath: m_SavedProperties.m_TexEnvs.Array.data[7].second.m_Offset.y
    value: 0
    objectReference: {fileID: 0}
  - target: {fileID: 0}
    propertyPath: m_SavedProperties.m_TexEnvs.Array.data[8].first
    value: _MaskFReflection
    objectReference: {fileID: 0}
  - target: {fileID: 0}
    propertyPath: m_SavedProperties.m_TexEnvs.Array.data[8].second.m_Texture
    value: 
    objectReference: {fileID: 0}
  - target: {fileID: 0}
    propertyPath: m_SavedProperties.m_TexEnvs.Array.data[8].second.m_Scale.x
    value: 1
    objectReference: {fileID: 0}
  - target: {fileID: 0}
    propertyPath: m_SavedProperties.m_TexEnvs.Array.data[8].second.m_Scale.y
    value: 1
    objectReference: {fileID: 0}
  - target: {fileID: 0}
    propertyPath: m_SavedProperties.m_TexEnvs.Array.data[8].second.m_Offset.x
    value: 0
    objectReference: {fileID: 0}
  - target: {fileID: 0}
    propertyPath: m_SavedProperties.m_TexEnvs.Array.data[8].second.m_Offset.y
    value: 0
    objectReference: {fileID: 0}
  - target: {fileID: 0}
    propertyPath: m_SavedProperties.m_TexEnvs.Array.data[9].first
    value: _MaskGloss
    objectReference: {fileID: 0}
  - target: {fileID: 0}
    propertyPath: m_SavedProperties.m_TexEnvs.Array.data[9].second.m_Texture
    value: 
    objectReference: {fileID: 0}
  - target: {fileID: 0}
    propertyPath: m_SavedProperties.m_TexEnvs.Array.data[9].second.m_Scale.x
    value: 1
    objectReference: {fileID: 0}
  - target: {fileID: 0}
    propertyPath: m_SavedProperties.m_TexEnvs.Array.data[9].second.m_Scale.y
    value: 1
    objectReference: {fileID: 0}
  - target: {fileID: 0}
    propertyPath: m_SavedProperties.m_TexEnvs.Array.data[9].second.m_Offset.x
    value: 0
    objectReference: {fileID: 0}
  - target: {fileID: 0}
    propertyPath: m_SavedProperties.m_TexEnvs.Array.data[9].second.m_Offset.y
    value: 0
    objectReference: {fileID: 0}
  - target: {fileID: 0}
    propertyPath: m_SavedProperties.m_TexEnvs.Array.data[10].first
    value: _MaskReflection
    objectReference: {fileID: 0}
  - target: {fileID: 0}
    propertyPath: m_SavedProperties.m_TexEnvs.Array.data[10].second.m_Texture
    value: 
    objectReference: {fileID: 0}
  - target: {fileID: 0}
    propertyPath: m_SavedProperties.m_TexEnvs.Array.data[10].second.m_Scale.x
    value: 1
    objectReference: {fileID: 0}
  - target: {fileID: 0}
    propertyPath: m_SavedProperties.m_TexEnvs.Array.data[10].second.m_Scale.y
    value: 1
    objectReference: {fileID: 0}
  - target: {fileID: 0}
    propertyPath: m_SavedProperties.m_TexEnvs.Array.data[10].second.m_Offset.x
    value: 0
    objectReference: {fileID: 0}
  - target: {fileID: 0}
    propertyPath: m_SavedProperties.m_TexEnvs.Array.data[10].second.m_Offset.y
    value: 0
    objectReference: {fileID: 0}
  - target: {fileID: 0}
    propertyPath: m_SavedProperties.m_TexEnvs.Array.data[11].first
    value: _MaskSelfLit
    objectReference: {fileID: 0}
  - target: {fileID: 0}
    propertyPath: m_SavedProperties.m_TexEnvs.Array.data[11].second.m_Texture
    value: 
    objectReference: {fileID: 0}
  - target: {fileID: 0}
    propertyPath: m_SavedProperties.m_TexEnvs.Array.data[11].second.m_Scale.x
    value: 1
    objectReference: {fileID: 0}
  - target: {fileID: 0}
    propertyPath: m_SavedProperties.m_TexEnvs.Array.data[11].second.m_Scale.y
    value: 1
    objectReference: {fileID: 0}
  - target: {fileID: 0}
    propertyPath: m_SavedProperties.m_TexEnvs.Array.data[11].second.m_Offset.x
    value: 0
    objectReference: {fileID: 0}
  - target: {fileID: 0}
    propertyPath: m_SavedProperties.m_TexEnvs.Array.data[11].second.m_Offset.y
    value: 0
    objectReference: {fileID: 0}
  - target: {fileID: 0}
    propertyPath: m_SavedProperties.m_TexEnvs.Array.data[12].first
    value: _MaskTransparency
    objectReference: {fileID: 0}
  - target: {fileID: 0}
    propertyPath: m_SavedProperties.m_TexEnvs.Array.data[12].second.m_Texture
    value: 
    objectReference: {fileID: 0}
  - target: {fileID: 0}
    propertyPath: m_SavedProperties.m_TexEnvs.Array.data[12].second.m_Scale.x
    value: 1
    objectReference: {fileID: 0}
  - target: {fileID: 0}
    propertyPath: m_SavedProperties.m_TexEnvs.Array.data[12].second.m_Scale.y
    value: 1
    objectReference: {fileID: 0}
  - target: {fileID: 0}
    propertyPath: m_SavedProperties.m_TexEnvs.Array.data[12].second.m_Offset.x
    value: 0
    objectReference: {fileID: 0}
  - target: {fileID: 0}
    propertyPath: m_SavedProperties.m_TexEnvs.Array.data[12].second.m_Offset.y
    value: 0
    objectReference: {fileID: 0}
  - target: {fileID: 0}
    propertyPath: m_SavedProperties.m_TexEnvs.Array.data[13].first
    value: _MetallicGlossMap
    objectReference: {fileID: 0}
  - target: {fileID: 0}
    propertyPath: m_SavedProperties.m_TexEnvs.Array.data[13].second.m_Texture
    value: 
    objectReference: {fileID: 0}
  - target: {fileID: 0}
    propertyPath: m_SavedProperties.m_TexEnvs.Array.data[13].second.m_Scale.x
    value: 1
    objectReference: {fileID: 0}
  - target: {fileID: 0}
    propertyPath: m_SavedProperties.m_TexEnvs.Array.data[13].second.m_Scale.y
    value: 1
    objectReference: {fileID: 0}
  - target: {fileID: 0}
    propertyPath: m_SavedProperties.m_TexEnvs.Array.data[13].second.m_Offset.x
    value: 0
    objectReference: {fileID: 0}
  - target: {fileID: 0}
    propertyPath: m_SavedProperties.m_TexEnvs.Array.data[13].second.m_Offset.y
    value: 0
    objectReference: {fileID: 0}
  - target: {fileID: 0}
    propertyPath: m_SavedProperties.m_TexEnvs.Array.data[14].first
    value: _NormalMap
    objectReference: {fileID: 0}
  - target: {fileID: 0}
    propertyPath: m_SavedProperties.m_TexEnvs.Array.data[14].second.m_Texture
    value: 
    objectReference: {fileID: 0}
  - target: {fileID: 0}
    propertyPath: m_SavedProperties.m_TexEnvs.Array.data[14].second.m_Scale.x
    value: 1
    objectReference: {fileID: 0}
  - target: {fileID: 0}
    propertyPath: m_SavedProperties.m_TexEnvs.Array.data[14].second.m_Scale.y
    value: 1
    objectReference: {fileID: 0}
  - target: {fileID: 0}
    propertyPath: m_SavedProperties.m_TexEnvs.Array.data[14].second.m_Offset.x
    value: 0
    objectReference: {fileID: 0}
  - target: {fileID: 0}
    propertyPath: m_SavedProperties.m_TexEnvs.Array.data[14].second.m_Offset.y
    value: 0
    objectReference: {fileID: 0}
  - target: {fileID: 0}
    propertyPath: m_SavedProperties.m_TexEnvs.Array.data[15].first
    value: _OcclusionMap
    objectReference: {fileID: 0}
  - target: {fileID: 0}
    propertyPath: m_SavedProperties.m_TexEnvs.Array.data[15].second.m_Texture
    value: 
    objectReference: {fileID: 0}
  - target: {fileID: 0}
    propertyPath: m_SavedProperties.m_TexEnvs.Array.data[15].second.m_Scale.x
    value: 1
    objectReference: {fileID: 0}
  - target: {fileID: 0}
    propertyPath: m_SavedProperties.m_TexEnvs.Array.data[15].second.m_Scale.y
    value: 1
    objectReference: {fileID: 0}
  - target: {fileID: 0}
    propertyPath: m_SavedProperties.m_TexEnvs.Array.data[15].second.m_Offset.x
    value: 0
    objectReference: {fileID: 0}
  - target: {fileID: 0}
    propertyPath: m_SavedProperties.m_TexEnvs.Array.data[15].second.m_Offset.y
    value: 0
    objectReference: {fileID: 0}
  - target: {fileID: 0}
    propertyPath: m_SavedProperties.m_TexEnvs.Array.data[16].first
    value: _OutlineWidthControl
    objectReference: {fileID: 0}
  - target: {fileID: 0}
    propertyPath: m_SavedProperties.m_TexEnvs.Array.data[16].second.m_Texture
    value: 
    objectReference: {fileID: 0}
  - target: {fileID: 0}
    propertyPath: m_SavedProperties.m_TexEnvs.Array.data[16].second.m_Scale.x
    value: 1
    objectReference: {fileID: 0}
  - target: {fileID: 0}
    propertyPath: m_SavedProperties.m_TexEnvs.Array.data[16].second.m_Scale.y
    value: 1
    objectReference: {fileID: 0}
  - target: {fileID: 0}
    propertyPath: m_SavedProperties.m_TexEnvs.Array.data[16].second.m_Offset.x
    value: 0
    objectReference: {fileID: 0}
  - target: {fileID: 0}
    propertyPath: m_SavedProperties.m_TexEnvs.Array.data[16].second.m_Offset.y
    value: 0
    objectReference: {fileID: 0}
  - target: {fileID: 0}
    propertyPath: m_SavedProperties.m_TexEnvs.Array.data[17].first
    value: _PTexture
    objectReference: {fileID: 0}
  - target: {fileID: 0}
    propertyPath: m_SavedProperties.m_TexEnvs.Array.data[17].second.m_Texture
    value: 
    objectReference: {fileID: 0}
  - target: {fileID: 0}
    propertyPath: m_SavedProperties.m_TexEnvs.Array.data[17].second.m_Scale.x
    value: 1
    objectReference: {fileID: 0}
  - target: {fileID: 0}
    propertyPath: m_SavedProperties.m_TexEnvs.Array.data[17].second.m_Scale.y
    value: 1
    objectReference: {fileID: 0}
  - target: {fileID: 0}
    propertyPath: m_SavedProperties.m_TexEnvs.Array.data[17].second.m_Offset.x
    value: 0
    objectReference: {fileID: 0}
  - target: {fileID: 0}
    propertyPath: m_SavedProperties.m_TexEnvs.Array.data[17].second.m_Offset.y
    value: 0
    objectReference: {fileID: 0}
  - target: {fileID: 0}
    propertyPath: m_SavedProperties.m_TexEnvs.Array.data[18].first
    value: _SecondaryCutout
    objectReference: {fileID: 0}
  - target: {fileID: 0}
    propertyPath: m_SavedProperties.m_TexEnvs.Array.data[18].second.m_Texture
    value: 
    objectReference: {fileID: 0}
  - target: {fileID: 0}
    propertyPath: m_SavedProperties.m_TexEnvs.Array.data[18].second.m_Scale.x
    value: 1
    objectReference: {fileID: 0}
  - target: {fileID: 0}
    propertyPath: m_SavedProperties.m_TexEnvs.Array.data[18].second.m_Scale.y
    value: 1
    objectReference: {fileID: 0}
  - target: {fileID: 0}
    propertyPath: m_SavedProperties.m_TexEnvs.Array.data[18].second.m_Offset.x
    value: 0
    objectReference: {fileID: 0}
  - target: {fileID: 0}
    propertyPath: m_SavedProperties.m_TexEnvs.Array.data[18].second.m_Offset.y
    value: 0
    objectReference: {fileID: 0}
  - target: {fileID: 0}
    propertyPath: m_SavedProperties.m_TexEnvs.Array.data[19].first
    value: _ShadowColorTexture
    objectReference: {fileID: 0}
  - target: {fileID: 0}
    propertyPath: m_SavedProperties.m_TexEnvs.Array.data[19].second.m_Texture
    value: 
    objectReference: {fileID: 0}
  - target: {fileID: 0}
    propertyPath: m_SavedProperties.m_TexEnvs.Array.data[19].second.m_Scale.x
    value: 1
    objectReference: {fileID: 0}
  - target: {fileID: 0}
    propertyPath: m_SavedProperties.m_TexEnvs.Array.data[19].second.m_Scale.y
    value: 1
    objectReference: {fileID: 0}
  - target: {fileID: 0}
    propertyPath: m_SavedProperties.m_TexEnvs.Array.data[19].second.m_Offset.x
    value: 0
    objectReference: {fileID: 0}
  - target: {fileID: 0}
    propertyPath: m_SavedProperties.m_TexEnvs.Array.data[19].second.m_Offset.y
    value: 0
    objectReference: {fileID: 0}
  - target: {fileID: 0}
    propertyPath: m_SavedProperties.m_TexEnvs.Array.data[20].first
    value: _ShadowT
    objectReference: {fileID: 0}
  - target: {fileID: 0}
    propertyPath: m_SavedProperties.m_TexEnvs.Array.data[20].second.m_Texture
    value: 
    objectReference: {fileID: 0}
  - target: {fileID: 0}
    propertyPath: m_SavedProperties.m_TexEnvs.Array.data[20].second.m_Scale.x
    value: 1
    objectReference: {fileID: 0}
  - target: {fileID: 0}
    propertyPath: m_SavedProperties.m_TexEnvs.Array.data[20].second.m_Scale.y
    value: 1
    objectReference: {fileID: 0}
  - target: {fileID: 0}
    propertyPath: m_SavedProperties.m_TexEnvs.Array.data[20].second.m_Offset.x
    value: 0
    objectReference: {fileID: 0}
  - target: {fileID: 0}
    propertyPath: m_SavedProperties.m_TexEnvs.Array.data[20].second.m_Offset.y
    value: 0
    objectReference: {fileID: 0}
  - target: {fileID: 0}
    propertyPath: m_SavedProperties.m_TexEnvs.Array.data[21].first
    value: _SpecGlossMap
    objectReference: {fileID: 0}
  - target: {fileID: 0}
    propertyPath: m_SavedProperties.m_TexEnvs.Array.data[21].second.m_Texture
    value: 
    objectReference: {fileID: 0}
  - target: {fileID: 0}
    propertyPath: m_SavedProperties.m_TexEnvs.Array.data[21].second.m_Scale.x
    value: 1
    objectReference: {fileID: 0}
  - target: {fileID: 0}
    propertyPath: m_SavedProperties.m_TexEnvs.Array.data[21].second.m_Scale.y
    value: 1
    objectReference: {fileID: 0}
  - target: {fileID: 0}
    propertyPath: m_SavedProperties.m_TexEnvs.Array.data[21].second.m_Offset.x
    value: 0
    objectReference: {fileID: 0}
  - target: {fileID: 0}
    propertyPath: m_SavedProperties.m_TexEnvs.Array.data[21].second.m_Offset.y
    value: 0
    objectReference: {fileID: 0}
  - target: {fileID: 0}
    propertyPath: m_SavedProperties.m_Floats.Array.size
    value: 160
    objectReference: {fileID: 0}
  - target: {fileID: 0}
    propertyPath: m_SavedProperties.m_Floats.Array.data[0].first
    value: _AffectShadow
    objectReference: {fileID: 0}
  - target: {fileID: 0}
    propertyPath: m_SavedProperties.m_Floats.Array.data[0].second
    value: 1
    objectReference: {fileID: 0}
  - target: {fileID: 0}
    propertyPath: m_SavedProperties.m_Floats.Array.data[1].first
    value: _AlphaBaseCutout
    objectReference: {fileID: 0}
  - target: {fileID: 0}
    propertyPath: m_SavedProperties.m_Floats.Array.data[1].second
    value: 1
    objectReference: {fileID: 0}
  - target: {fileID: 0}
    propertyPath: m_SavedProperties.m_Floats.Array.data[2].first
    value: _AlphaClip
    objectReference: {fileID: 0}
  - target: {fileID: 0}
    propertyPath: m_SavedProperties.m_Floats.Array.data[2].second
    value: 0
    objectReference: {fileID: 0}
  - target: {fileID: 0}
    propertyPath: m_SavedProperties.m_Floats.Array.data[3].first
    value: _Blend
    objectReference: {fileID: 0}
  - target: {fileID: 0}
    propertyPath: m_SavedProperties.m_Floats.Array.data[3].second
    value: 0
    objectReference: {fileID: 0}
  - target: {fileID: 0}
    propertyPath: m_SavedProperties.m_Floats.Array.data[4].first
    value: _BumpScale
    objectReference: {fileID: 0}
  - target: {fileID: 0}
    propertyPath: m_SavedProperties.m_Floats.Array.data[4].second
    value: 1
    objectReference: {fileID: 0}
  - target: {fileID: 0}
    propertyPath: m_SavedProperties.m_Floats.Array.data[5].first
    value: _Compa
    objectReference: {fileID: 0}
  - target: {fileID: 0}
    propertyPath: m_SavedProperties.m_Floats.Array.data[5].second
    value: 4
    objectReference: {fileID: 0}
  - target: {fileID: 0}
    propertyPath: m_SavedProperties.m_Floats.Array.data[6].first
    value: _Cull
    objectReference: {fileID: 0}
  - target: {fileID: 0}
    propertyPath: m_SavedProperties.m_Floats.Array.data[6].second
    value: 2
    objectReference: {fileID: 0}
  - target: {fileID: 0}
    propertyPath: m_SavedProperties.m_Floats.Array.data[7].first
    value: _CustomLightDirectionFollowObjectRotation
    objectReference: {fileID: 0}
  - target: {fileID: 0}
    propertyPath: m_SavedProperties.m_Floats.Array.data[7].second
    value: 0
    objectReference: {fileID: 0}
  - target: {fileID: 0}
    propertyPath: m_SavedProperties.m_Floats.Array.data[8].first
    value: _CustomLightDirectionIntensity
    objectReference: {fileID: 0}
  - target: {fileID: 0}
    propertyPath: m_SavedProperties.m_Floats.Array.data[8].second
    value: 0
    objectReference: {fileID: 0}
  - target: {fileID: 0}
    propertyPath: m_SavedProperties.m_Floats.Array.data[9].first
    value: _Cutoff
    objectReference: {fileID: 0}
  - target: {fileID: 0}
    propertyPath: m_SavedProperties.m_Floats.Array.data[9].second
    value: 0.5
    objectReference: {fileID: 0}
  - target: {fileID: 0}
    propertyPath: m_SavedProperties.m_Floats.Array.data[10].first
    value: _Cutout
    objectReference: {fileID: 0}
  - target: {fileID: 0}
    propertyPath: m_SavedProperties.m_Floats.Array.data[10].second
    value: 0
    objectReference: {fileID: 0}
  - target: {fileID: 0}
    propertyPath: m_SavedProperties.m_Floats.Array.data[11].first
    value: _Depth
    objectReference: {fileID: 0}
  - target: {fileID: 0}
    propertyPath: m_SavedProperties.m_Floats.Array.data[11].second
    value: 0.2
    objectReference: {fileID: 0}
  - target: {fileID: 0}
    propertyPath: m_SavedProperties.m_Floats.Array.data[12].first
    value: _DepthColorPower
    objectReference: {fileID: 0}
  - target: {fileID: 0}
    propertyPath: m_SavedProperties.m_Floats.Array.data[12].second
    value: 1.8
    objectReference: {fileID: 0}
  - target: {fileID: 0}
    propertyPath: m_SavedProperties.m_Floats.Array.data[13].first
    value: _DepthEdgeHardness
    objectReference: {fileID: 0}
  - target: {fileID: 0}
    propertyPath: m_SavedProperties.m_Floats.Array.data[13].second
    value: 0.1
    objectReference: {fileID: 0}
  - target: {fileID: 0}
    propertyPath: m_SavedProperties.m_Floats.Array.data[14].first
    value: _DirectionalLightIntensity
    objectReference: {fileID: 0}
  - target: {fileID: 0}
    propertyPath: m_SavedProperties.m_Floats.Array.data[14].second
    value: 0
    objectReference: {fileID: 0}
  - target: {fileID: 0}
    propertyPath: m_SavedProperties.m_Floats.Array.data[15].first
    value: _DoubleSided
    objectReference: {fileID: 0}
  - target: {fileID: 0}
    propertyPath: m_SavedProperties.m_Floats.Array.data[15].second
    value: 2
    objectReference: {fileID: 0}
  - target: {fileID: 0}
    propertyPath: m_SavedProperties.m_Floats.Array.data[16].first
    value: _DoubleSidedOutline
    objectReference: {fileID: 0}
  - target: {fileID: 0}
    propertyPath: m_SavedProperties.m_Floats.Array.data[16].second
    value: 1
    objectReference: {fileID: 0}
  - target: {fileID: 0}
    propertyPath: m_SavedProperties.m_Floats.Array.data[17].first
    value: _DstBlend
    objectReference: {fileID: 0}
  - target: {fileID: 0}
    propertyPath: m_SavedProperties.m_Floats.Array.data[17].second
    value: 0
    objectReference: {fileID: 0}
  - target: {fileID: 0}
    propertyPath: m_SavedProperties.m_Floats.Array.data[18].first
    value: _DynamicNoisyOutline
    objectReference: {fileID: 0}
  - target: {fileID: 0}
    propertyPath: m_SavedProperties.m_Floats.Array.data[18].second
    value: 0
    objectReference: {fileID: 0}
  - target: {fileID: 0}
    propertyPath: m_SavedProperties.m_Floats.Array.data[19].first
    value: _EnableTextureTransparent
    objectReference: {fileID: 0}
  - target: {fileID: 0}
    propertyPath: m_SavedProperties.m_Floats.Array.data[19].second
    value: 0
    objectReference: {fileID: 0}
  - target: {fileID: 0}
    propertyPath: m_SavedProperties.m_Floats.Array.data[20].first
    value: _EnvironmentReflections
    objectReference: {fileID: 0}
  - target: {fileID: 0}
    propertyPath: m_SavedProperties.m_Floats.Array.data[20].second
    value: 1
    objectReference: {fileID: 0}
  - target: {fileID: 0}
    propertyPath: m_SavedProperties.m_Floats.Array.data[21].first
    value: _EnvironmentalLightingIntensity
    objectReference: {fileID: 0}
  - target: {fileID: 0}
    propertyPath: m_SavedProperties.m_Floats.Array.data[21].second
    value: 1
    objectReference: {fileID: 0}
  - target: {fileID: 0}
    propertyPath: m_SavedProperties.m_Floats.Array.data[22].first
    value: _FReflectionIntensity
    objectReference: {fileID: 0}
  - target: {fileID: 0}
    propertyPath: m_SavedProperties.m_Floats.Array.data[22].second
    value: 0
    objectReference: {fileID: 0}
  - target: {fileID: 0}
    propertyPath: m_SavedProperties.m_Floats.Array.data[23].first
    value: _FReflectionRoughtness
    objectReference: {fileID: 0}
  - target: {fileID: 0}
    propertyPath: m_SavedProperties.m_Floats.Array.data[23].second
    value: 0
    objectReference: {fileID: 0}
  - target: {fileID: 0}
    propertyPath: m_SavedProperties.m_Floats.Array.data[24].first
    value: _FarDistanceMaxWidth
    objectReference: {fileID: 0}
  - target: {fileID: 0}
    propertyPath: m_SavedProperties.m_Floats.Array.data[24].second
    value: 10
    objectReference: {fileID: 0}
  - target: {fileID: 0}
    propertyPath: m_SavedProperties.m_Floats.Array.data[25].first
    value: _GIFlatShade
    objectReference: {fileID: 0}
  - target: {fileID: 0}
    propertyPath: m_SavedProperties.m_Floats.Array.data[25].second
    value: 0
    objectReference: {fileID: 0}
  - target: {fileID: 0}
    propertyPath: m_SavedProperties.m_Floats.Array.data[26].first
    value: _GIShadeThreshold
    objectReference: {fileID: 0}
  - target: {fileID: 0}
    propertyPath: m_SavedProperties.m_Floats.Array.data[26].second
    value: 0
    objectReference: {fileID: 0}
  - target: {fileID: 0}
    propertyPath: m_SavedProperties.m_Floats.Array.data[27].first
    value: _GlossColorPower
    objectReference: {fileID: 0}
  - target: {fileID: 0}
    propertyPath: m_SavedProperties.m_Floats.Array.data[27].second
    value: 10
    objectReference: {fileID: 0}
  - target: {fileID: 0}
    propertyPath: m_SavedProperties.m_Floats.Array.data[28].first
    value: _GlossIntensity
    objectReference: {fileID: 0}
  - target: {fileID: 0}
    propertyPath: m_SavedProperties.m_Floats.Array.data[28].second
    value: 1
    objectReference: {fileID: 0}
  - target: {fileID: 0}
    propertyPath: m_SavedProperties.m_Floats.Array.data[29].first
    value: _GlossMapScale
    objectReference: {fileID: 0}
  - target: {fileID: 0}
    propertyPath: m_SavedProperties.m_Floats.Array.data[29].second
    value: 0
    objectReference: {fileID: 0}
  - target: {fileID: 0}
    propertyPath: m_SavedProperties.m_Floats.Array.data[30].first
    value: _GlossSoftness
    objectReference: {fileID: 0}
  - target: {fileID: 0}
    propertyPath: m_SavedProperties.m_Floats.Array.data[30].second
    value: 0
    objectReference: {fileID: 0}
  - target: {fileID: 0}
    propertyPath: m_SavedProperties.m_Floats.Array.data[31].first
    value: _GlossTextureFollowLight
    objectReference: {fileID: 0}
  - target: {fileID: 0}
    propertyPath: m_SavedProperties.m_Floats.Array.data[31].second
    value: 0
    objectReference: {fileID: 0}
  - target: {fileID: 0}
    propertyPath: m_SavedProperties.m_Floats.Array.data[32].first
    value: _GlossTextureFollowObjectRotation
    objectReference: {fileID: 0}
  - target: {fileID: 0}
    propertyPath: m_SavedProperties.m_Floats.Array.data[32].second
    value: 0
    objectReference: {fileID: 0}
  - target: {fileID: 0}
    propertyPath: m_SavedProperties.m_Floats.Array.data[33].first
    value: _GlossTextureRotate
    objectReference: {fileID: 0}
  - target: {fileID: 0}
    propertyPath: m_SavedProperties.m_Floats.Array.data[33].second
    value: 0
    objectReference: {fileID: 0}
  - target: {fileID: 0}
    propertyPath: m_SavedProperties.m_Floats.Array.data[34].first
    value: _GlossTextureSoftness
    objectReference: {fileID: 0}
  - target: {fileID: 0}
    propertyPath: m_SavedProperties.m_Floats.Array.data[34].second
    value: 0
    objectReference: {fileID: 0}
  - target: {fileID: 0}
    propertyPath: m_SavedProperties.m_Floats.Array.data[35].first
    value: _Glossiness
    objectReference: {fileID: 0}
  - target: {fileID: 0}
    propertyPath: m_SavedProperties.m_Floats.Array.data[35].second
    value: 0
    objectReference: {fileID: 0}
  - target: {fileID: 0}
    propertyPath: m_SavedProperties.m_Floats.Array.data[36].first
    value: _GlossyReflections
    objectReference: {fileID: 0}
  - target: {fileID: 0}
    propertyPath: m_SavedProperties.m_Floats.Array.data[36].second
    value: 0
    objectReference: {fileID: 0}
  - target: {fileID: 0}
    propertyPath: m_SavedProperties.m_Floats.Array.data[37].first
    value: _HighlightColorPower
    objectReference: {fileID: 0}
  - target: {fileID: 0}
    propertyPath: m_SavedProperties.m_Floats.Array.data[37].second
    value: 1
    objectReference: {fileID: 0}
  - target: {fileID: 0}
    propertyPath: m_SavedProperties.m_Floats.Array.data[38].first
    value: _L_F_CLD
    objectReference: {fileID: 0}
  - target: {fileID: 0}
    propertyPath: m_SavedProperties.m_Floats.Array.data[38].second
    value: 0
    objectReference: {fileID: 0}
  - target: {fileID: 0}
    propertyPath: m_SavedProperties.m_Floats.Array.data[39].first
    value: _L_F_FR
    objectReference: {fileID: 0}
  - target: {fileID: 0}
    propertyPath: m_SavedProperties.m_Floats.Array.data[39].second
    value: 0
    objectReference: {fileID: 0}
  - target: {fileID: 0}
    propertyPath: m_SavedProperties.m_Floats.Array.data[40].first
    value: _L_F_GLO
    objectReference: {fileID: 0}
  - target: {fileID: 0}
    propertyPath: m_SavedProperties.m_Floats.Array.data[40].second
    value: 0
    objectReference: {fileID: 0}
  - target: {fileID: 0}
    propertyPath: m_SavedProperties.m_Floats.Array.data[41].first
    value: _L_F_GLOT
    objectReference: {fileID: 0}
  - target: {fileID: 0}
    propertyPath: m_SavedProperties.m_Floats.Array.data[41].second
    value: 0
    objectReference: {fileID: 0}
  - target: {fileID: 0}
    propertyPath: m_SavedProperties.m_Floats.Array.data[42].first
    value: _L_F_MC
    objectReference: {fileID: 0}
  - target: {fileID: 0}
    propertyPath: m_SavedProperties.m_Floats.Array.data[42].second
    value: 0
    objectReference: {fileID: 0}
  - target: {fileID: 0}
    propertyPath: m_SavedProperties.m_Floats.Array.data[43].first
    value: _L_F_NM
    objectReference: {fileID: 0}
  - target: {fileID: 0}
    propertyPath: m_SavedProperties.m_Floats.Array.data[43].second
    value: 0
    objectReference: {fileID: 0}
  - target: {fileID: 0}
    propertyPath: m_SavedProperties.m_Floats.Array.data[44].first
    value: _L_F_PT
    objectReference: {fileID: 0}
  - target: {fileID: 0}
    propertyPath: m_SavedProperties.m_Floats.Array.data[44].second
    value: 0
    objectReference: {fileID: 0}
  - target: {fileID: 0}
    propertyPath: m_SavedProperties.m_Floats.Array.data[45].first
    value: _L_F_RL
    objectReference: {fileID: 0}
  - target: {fileID: 0}
    propertyPath: m_SavedProperties.m_Floats.Array.data[45].second
    value: 0
    objectReference: {fileID: 0}
  - target: {fileID: 0}
    propertyPath: m_SavedProperties.m_Floats.Array.data[46].first
    value: _L_F_SCT
    objectReference: {fileID: 0}
  - target: {fileID: 0}
    propertyPath: m_SavedProperties.m_Floats.Array.data[46].second
    value: 0
    objectReference: {fileID: 0}
  - target: {fileID: 0}
    propertyPath: m_SavedProperties.m_Floats.Array.data[47].first
    value: _L_F_SL
    objectReference: {fileID: 0}
  - target: {fileID: 0}
    propertyPath: m_SavedProperties.m_Floats.Array.data[47].second
    value: 0
    objectReference: {fileID: 0}
  - target: {fileID: 0}
    propertyPath: m_SavedProperties.m_Floats.Array.data[48].first
    value: _L_F_SON
    objectReference: {fileID: 0}
  - target: {fileID: 0}
    propertyPath: m_SavedProperties.m_Floats.Array.data[48].second
    value: 0
    objectReference: {fileID: 0}
  - target: {fileID: 0}
    propertyPath: m_SavedProperties.m_Floats.Array.data[49].first
    value: _L_F_SS
    objectReference: {fileID: 0}
  - target: {fileID: 0}
    propertyPath: m_SavedProperties.m_Floats.Array.data[49].second
    value: 1
    objectReference: {fileID: 0}
  - target: {fileID: 0}
    propertyPath: m_SavedProperties.m_Floats.Array.data[50].first
    value: _L_F_ST
    objectReference: {fileID: 0}
  - target: {fileID: 0}
    propertyPath: m_SavedProperties.m_Floats.Array.data[50].second
    value: 0
    objectReference: {fileID: 0}
  - target: {fileID: 0}
    propertyPath: m_SavedProperties.m_Floats.Array.data[51].first
    value: _L_F_UOAL
    objectReference: {fileID: 0}
  - target: {fileID: 0}
    propertyPath: m_SavedProperties.m_Floats.Array.data[51].second
    value: 0
    objectReference: {fileID: 0}
  - target: {fileID: 0}
    propertyPath: m_SavedProperties.m_Floats.Array.data[52].first
    value: _LightAffectOutlineColor
    objectReference: {fileID: 0}
  - target: {fileID: 0}
    propertyPath: m_SavedProperties.m_Floats.Array.data[52].second
    value: 0
    objectReference: {fileID: 0}
  - target: {fileID: 0}
    propertyPath: m_SavedProperties.m_Floats.Array.data[53].first
    value: _LightAffectRimLightColor
    objectReference: {fileID: 0}
  - target: {fileID: 0}
    propertyPath: m_SavedProperties.m_Floats.Array.data[53].second
    value: 0
    objectReference: {fileID: 0}
  - target: {fileID: 0}
    propertyPath: m_SavedProperties.m_Floats.Array.data[54].first
    value: _LightAffectShadow
    objectReference: {fileID: 0}
  - target: {fileID: 0}
    propertyPath: m_SavedProperties.m_Floats.Array.data[54].second
    value: 0
    objectReference: {fileID: 0}
  - target: {fileID: 0}
    propertyPath: m_SavedProperties.m_Floats.Array.data[55].first
    value: _LightFalloffAffectShadowT
    objectReference: {fileID: 0}
  - target: {fileID: 0}
    propertyPath: m_SavedProperties.m_Floats.Array.data[55].second
    value: 0
    objectReference: {fileID: 0}
  - target: {fileID: 0}
    propertyPath: m_SavedProperties.m_Floats.Array.data[56].first
    value: _LightFalloffSoftness
    objectReference: {fileID: 0}
  - target: {fileID: 0}
    propertyPath: m_SavedProperties.m_Floats.Array.data[56].second
    value: 1
    objectReference: {fileID: 0}
  - target: {fileID: 0}
    propertyPath: m_SavedProperties.m_Floats.Array.data[57].first
    value: _LightIntensity
    objectReference: {fileID: 0}
  - target: {fileID: 0}
    propertyPath: m_SavedProperties.m_Floats.Array.data[57].second
    value: -1
    objectReference: {fileID: 0}
  - target: {fileID: 0}
    propertyPath: m_SavedProperties.m_Floats.Array.data[58].first
    value: _MCIALO
    objectReference: {fileID: 0}
  - target: {fileID: 0}
    propertyPath: m_SavedProperties.m_Floats.Array.data[58].second
    value: 0
    objectReference: {fileID: 0}
  - target: {fileID: 0}
    propertyPath: m_SavedProperties.m_Floats.Array.data[59].first
    value: _MCapIntensity
    objectReference: {fileID: 0}
  - target: {fileID: 0}
    propertyPath: m_SavedProperties.m_Floats.Array.data[59].second
    value: 1
    objectReference: {fileID: 0}
  - target: {fileID: 0}
    propertyPath: m_SavedProperties.m_Floats.Array.data[60].first
    value: _MVCOL
    objectReference: {fileID: 0}
  - target: {fileID: 0}
    propertyPath: m_SavedProperties.m_Floats.Array.data[60].second
    value: 0
    objectReference: {fileID: 0}
  - target: {fileID: 0}
    propertyPath: m_SavedProperties.m_Floats.Array.data[61].first
    value: _MainColorAffectTexture
    objectReference: {fileID: 0}
  - target: {fileID: 0}
    propertyPath: m_SavedProperties.m_Floats.Array.data[61].second
    value: 0
    objectReference: {fileID: 0}
  - target: {fileID: 0}
    propertyPath: m_SavedProperties.m_Floats.Array.data[62].first
    value: _Metallic
    objectReference: {fileID: 0}
  - target: {fileID: 0}
    propertyPath: m_SavedProperties.m_Floats.Array.data[62].second
    value: 0
    objectReference: {fileID: 0}
  - target: {fileID: 0}
    propertyPath: m_SavedProperties.m_Floats.Array.data[63].first
    value: _MixMainTexToOutline
    objectReference: {fileID: 0}
  - target: {fileID: 0}
    propertyPath: m_SavedProperties.m_Floats.Array.data[63].second
    value: 0
    objectReference: {fileID: 0}
  - target: {fileID: 0}
    propertyPath: m_SavedProperties.m_Floats.Array.data[64].first
    value: _N_F_CA
    objectReference: {fileID: 0}
  - target: {fileID: 0}
    propertyPath: m_SavedProperties.m_Floats.Array.data[64].second
    value: 0
    objectReference: {fileID: 0}
  - target: {fileID: 0}
    propertyPath: m_SavedProperties.m_Floats.Array.data[65].first
    value: _N_F_CLD
    objectReference: {fileID: 0}
  - target: {fileID: 0}
    propertyPath: m_SavedProperties.m_Floats.Array.data[65].second
    value: 0
    objectReference: {fileID: 0}
  - target: {fileID: 0}
    propertyPath: m_SavedProperties.m_Floats.Array.data[66].first
    value: _N_F_CO
    objectReference: {fileID: 0}
  - target: {fileID: 0}
    propertyPath: m_SavedProperties.m_Floats.Array.data[66].second
    value: 0
    objectReference: {fileID: 0}
  - target: {fileID: 0}
    propertyPath: m_SavedProperties.m_Floats.Array.data[67].first
    value: _N_F_D
    objectReference: {fileID: 0}
  - target: {fileID: 0}
    propertyPath: m_SavedProperties.m_Floats.Array.data[67].second
    value: 0
    objectReference: {fileID: 0}
  - target: {fileID: 0}
    propertyPath: m_SavedProperties.m_Floats.Array.data[68].first
    value: _N_F_DCS
    objectReference: {fileID: 0}
  - target: {fileID: 0}
    propertyPath: m_SavedProperties.m_Floats.Array.data[68].second
    value: 0
    objectReference: {fileID: 0}
  - target: {fileID: 0}
    propertyPath: m_SavedProperties.m_Floats.Array.data[69].first
    value: _N_F_EAL
    objectReference: {fileID: 0}
  - target: {fileID: 0}
    propertyPath: m_SavedProperties.m_Floats.Array.data[69].second
    value: 1
    objectReference: {fileID: 0}
  - target: {fileID: 0}
    propertyPath: m_SavedProperties.m_Floats.Array.data[70].first
    value: _N_F_FR
    objectReference: {fileID: 0}
  - target: {fileID: 0}
    propertyPath: m_SavedProperties.m_Floats.Array.data[70].second
    value: 0
    objectReference: {fileID: 0}
  - target: {fileID: 0}
    propertyPath: m_SavedProperties.m_Floats.Array.data[71].first
    value: _N_F_GLO
    objectReference: {fileID: 0}
  - target: {fileID: 0}
    propertyPath: m_SavedProperties.m_Floats.Array.data[71].second
    value: 0
    objectReference: {fileID: 0}
  - target: {fileID: 0}
    propertyPath: m_SavedProperties.m_Floats.Array.data[72].first
    value: _N_F_GLOT
    objectReference: {fileID: 0}
  - target: {fileID: 0}
    propertyPath: m_SavedProperties.m_Floats.Array.data[72].second
    value: 0
    objectReference: {fileID: 0}
  - target: {fileID: 0}
    propertyPath: m_SavedProperties.m_Floats.Array.data[73].first
    value: _N_F_HDLS
    objectReference: {fileID: 0}
  - target: {fileID: 0}
    propertyPath: m_SavedProperties.m_Floats.Array.data[73].second
    value: 0
    objectReference: {fileID: 0}
  - target: {fileID: 0}
    propertyPath: m_SavedProperties.m_Floats.Array.data[74].first
    value: _N_F_HPSS
    objectReference: {fileID: 0}
  - target: {fileID: 0}
    propertyPath: m_SavedProperties.m_Floats.Array.data[74].second
    value: 0
    objectReference: {fileID: 0}
  - target: {fileID: 0}
    propertyPath: m_SavedProperties.m_Floats.Array.data[75].first
    value: _N_F_MC
    objectReference: {fileID: 0}
  - target: {fileID: 0}
    propertyPath: m_SavedProperties.m_Floats.Array.data[75].second
    value: 0
    objectReference: {fileID: 0}
  - target: {fileID: 0}
    propertyPath: m_SavedProperties.m_Floats.Array.data[76].first
    value: _N_F_NLASOBF
    objectReference: {fileID: 0}
  - target: {fileID: 0}
    propertyPath: m_SavedProperties.m_Floats.Array.data[76].second
    value: 0
    objectReference: {fileID: 0}
  - target: {fileID: 0}
    propertyPath: m_SavedProperties.m_Floats.Array.data[77].first
    value: _N_F_NM
    objectReference: {fileID: 0}
  - target: {fileID: 0}
    propertyPath: m_SavedProperties.m_Floats.Array.data[77].second
    value: 0
    objectReference: {fileID: 0}
  - target: {fileID: 0}
    propertyPath: m_SavedProperties.m_Floats.Array.data[78].first
    value: _N_F_O
    objectReference: {fileID: 0}
  - target: {fileID: 0}
    propertyPath: m_SavedProperties.m_Floats.Array.data[78].second
    value: 1
    objectReference: {fileID: 0}
  - target: {fileID: 0}
    propertyPath: m_SavedProperties.m_Floats.Array.data[79].first
    value: _N_F_PT
    objectReference: {fileID: 0}
  - target: {fileID: 0}
    propertyPath: m_SavedProperties.m_Floats.Array.data[79].second
    value: 0
    objectReference: {fileID: 0}
  - target: {fileID: 0}
    propertyPath: m_SavedProperties.m_Floats.Array.data[80].first
    value: _N_F_R
    objectReference: {fileID: 0}
  - target: {fileID: 0}
    propertyPath: m_SavedProperties.m_Floats.Array.data[80].second
    value: 0
    objectReference: {fileID: 0}
  - target: {fileID: 0}
    propertyPath: m_SavedProperties.m_Floats.Array.data[81].first
    value: _N_F_RL
    objectReference: {fileID: 0}
  - target: {fileID: 0}
    propertyPath: m_SavedProperties.m_Floats.Array.data[81].second
    value: 0
    objectReference: {fileID: 0}
  - target: {fileID: 0}
    propertyPath: m_SavedProperties.m_Floats.Array.data[82].first
    value: _N_F_SCT
    objectReference: {fileID: 0}
  - target: {fileID: 0}
    propertyPath: m_SavedProperties.m_Floats.Array.data[82].second
    value: 0
    objectReference: {fileID: 0}
  - target: {fileID: 0}
    propertyPath: m_SavedProperties.m_Floats.Array.data[83].first
    value: _N_F_SL
    objectReference: {fileID: 0}
  - target: {fileID: 0}
    propertyPath: m_SavedProperties.m_Floats.Array.data[83].second
    value: 0
    objectReference: {fileID: 0}
  - target: {fileID: 0}
    propertyPath: m_SavedProperties.m_Floats.Array.data[84].first
    value: _N_F_SON
    objectReference: {fileID: 0}
  - target: {fileID: 0}
    propertyPath: m_SavedProperties.m_Floats.Array.data[84].second
    value: 0
    objectReference: {fileID: 0}
  - target: {fileID: 0}
    propertyPath: m_SavedProperties.m_Floats.Array.data[85].first
    value: _N_F_SS
    objectReference: {fileID: 0}
  - target: {fileID: 0}
    propertyPath: m_SavedProperties.m_Floats.Array.data[85].second
    value: 1
    objectReference: {fileID: 0}
  - target: {fileID: 0}
    propertyPath: m_SavedProperties.m_Floats.Array.data[86].first
    value: _N_F_ST
    objectReference: {fileID: 0}
  - target: {fileID: 0}
    propertyPath: m_SavedProperties.m_Floats.Array.data[86].second
    value: 0
    objectReference: {fileID: 0}
  - target: {fileID: 0}
    propertyPath: m_SavedProperties.m_Floats.Array.data[87].first
    value: _N_F_STIAL
    objectReference: {fileID: 0}
  - target: {fileID: 0}
    propertyPath: m_SavedProperties.m_Floats.Array.data[87].second
    value: 0
    objectReference: {fileID: 0}
  - target: {fileID: 0}
    propertyPath: m_SavedProperties.m_Floats.Array.data[88].first
    value: _N_F_STIS
    objectReference: {fileID: 0}
  - target: {fileID: 0}
    propertyPath: m_SavedProperties.m_Floats.Array.data[88].second
    value: 0
    objectReference: {fileID: 0}
  - target: {fileID: 0}
    propertyPath: m_SavedProperties.m_Floats.Array.data[89].first
    value: _NoisyOutlineIntensity
    objectReference: {fileID: 0}
  - target: {fileID: 0}
    propertyPath: m_SavedProperties.m_Floats.Array.data[89].second
    value: 0
    objectReference: {fileID: 0}
  - target: {fileID: 0}
    propertyPath: m_SavedProperties.m_Floats.Array.data[90].first
    value: _NormalMapIntensity
    objectReference: {fileID: 0}
  - target: {fileID: 0}
    propertyPath: m_SavedProperties.m_Floats.Array.data[90].second
    value: 1
    objectReference: {fileID: 0}
  - target: {fileID: 0}
    propertyPath: m_SavedProperties.m_Floats.Array.data[91].first
    value: _OcclusionStrength
    objectReference: {fileID: 0}
  - target: {fileID: 0}
    propertyPath: m_SavedProperties.m_Floats.Array.data[91].second
    value: 1
    objectReference: {fileID: 0}
  - target: {fileID: 0}
    propertyPath: m_SavedProperties.m_Floats.Array.data[92].first
    value: _Opacity
    objectReference: {fileID: 0}
  - target: {fileID: 0}
    propertyPath: m_SavedProperties.m_Floats.Array.data[92].second
    value: 1
    objectReference: {fileID: 0}
  - target: {fileID: 0}
    propertyPath: m_SavedProperties.m_Floats.Array.data[93].first
    value: _Oper
    objectReference: {fileID: 0}
  - target: {fileID: 0}
    propertyPath: m_SavedProperties.m_Floats.Array.data[93].second
    value: 0
    objectReference: {fileID: 0}
  - target: {fileID: 0}
    propertyPath: m_SavedProperties.m_Floats.Array.data[94].first
    value: _OutlineExtrudeMethod
    objectReference: {fileID: 0}
  - target: {fileID: 0}
    propertyPath: m_SavedProperties.m_Floats.Array.data[94].second
    value: 0
    objectReference: {fileID: 0}
  - target: {fileID: 0}
    propertyPath: m_SavedProperties.m_Floats.Array.data[95].first
    value: _OutlineWidth
    objectReference: {fileID: 0}
  - target: {fileID: 0}
    propertyPath: m_SavedProperties.m_Floats.Array.data[95].second
    value: 0.5
    objectReference: {fileID: 0}
  - target: {fileID: 0}
    propertyPath: m_SavedProperties.m_Floats.Array.data[96].first
    value: _OutlineWidthAffectedByViewDistance
    objectReference: {fileID: 0}
  - target: {fileID: 0}
    propertyPath: m_SavedProperties.m_Floats.Array.data[96].second
    value: 0
    objectReference: {fileID: 0}
  - target: {fileID: 0}
    propertyPath: m_SavedProperties.m_Floats.Array.data[97].first
    value: _OutlineZPostionInCamera
    objectReference: {fileID: 0}
  - target: {fileID: 0}
    propertyPath: m_SavedProperties.m_Floats.Array.data[97].second
    value: 0
    objectReference: {fileID: 0}
  - target: {fileID: 0}
    propertyPath: m_SavedProperties.m_Floats.Array.data[98].first
    value: _OverallShadowColorPower
    objectReference: {fileID: 0}
  - target: {fileID: 0}
    propertyPath: m_SavedProperties.m_Floats.Array.data[98].second
    value: 1
    objectReference: {fileID: 0}
  - target: {fileID: 0}
    propertyPath: m_SavedProperties.m_Floats.Array.data[99].first
    value: _PSGLOTEX
    objectReference: {fileID: 0}
  - target: {fileID: 0}
    propertyPath: m_SavedProperties.m_Floats.Array.data[99].second
    value: 0
    objectReference: {fileID: 0}
  - target: {fileID: 0}
    propertyPath: m_SavedProperties.m_Floats.Array.data[100].first
    value: _PTexturePower
    objectReference: {fileID: 0}
  - target: {fileID: 0}
    propertyPath: m_SavedProperties.m_Floats.Array.data[100].second
    value: 1
    objectReference: {fileID: 0}
  - target: {fileID: 0}
    propertyPath: m_SavedProperties.m_Floats.Array.data[101].first
    value: _PointLightSVD
    objectReference: {fileID: 0}
  - target: {fileID: 0}
    propertyPath: m_SavedProperties.m_Floats.Array.data[101].second
    value: 0
    objectReference: {fileID: 0}
  - target: {fileID: 0}
    propertyPath: m_SavedProperties.m_Floats.Array.data[102].first
    value: _PointSpotlightIntensity
    objectReference: {fileID: 0}
  - target: {fileID: 0}
    propertyPath: m_SavedProperties.m_Floats.Array.data[102].second
    value: 0.45
    objectReference: {fileID: 0}
  - target: {fileID: 0}
    propertyPath: m_SavedProperties.m_Floats.Array.data[103].first
    value: _QueueOffset
    objectReference: {fileID: 0}
  - target: {fileID: 0}
    propertyPath: m_SavedProperties.m_Floats.Array.data[103].second
    value: 0
    objectReference: {fileID: 0}
  - target: {fileID: 0}
    propertyPath: m_SavedProperties.m_Floats.Array.data[104].first
    value: _RELG
    objectReference: {fileID: 0}
  - target: {fileID: 0}
    propertyPath: m_SavedProperties.m_Floats.Array.data[104].second
    value: 1
    objectReference: {fileID: 0}
  - target: {fileID: 0}
    propertyPath: m_SavedProperties.m_Floats.Array.data[105].first
    value: _ReceiveShadows
    objectReference: {fileID: 0}
  - target: {fileID: 0}
    propertyPath: m_SavedProperties.m_Floats.Array.data[105].second
    value: 1
    objectReference: {fileID: 0}
  - target: {fileID: 0}
    propertyPath: m_SavedProperties.m_Floats.Array.data[106].first
    value: _ReduceShadowPointLight
    objectReference: {fileID: 0}
  - target: {fileID: 0}
    propertyPath: m_SavedProperties.m_Floats.Array.data[106].second
    value: 0
    objectReference: {fileID: 0}
  - target: {fileID: 0}
    propertyPath: m_SavedProperties.m_Floats.Array.data[107].first
    value: _ReduceShadowSpotDirectionalLight
    objectReference: {fileID: 0}
  - target: {fileID: 0}
    propertyPath: m_SavedProperties.m_Floats.Array.data[107].second
    value: 10
    objectReference: {fileID: 0}
  - target: {fileID: 0}
    propertyPath: m_SavedProperties.m_Floats.Array.data[108].first
    value: _RefMetallic
    objectReference: {fileID: 0}
  - target: {fileID: 0}
    propertyPath: m_SavedProperties.m_Floats.Array.data[108].second
    value: 0
    objectReference: {fileID: 0}
  - target: {fileID: 0}
    propertyPath: m_SavedProperties.m_Floats.Array.data[109].first
    value: _RefVal
    objectReference: {fileID: 0}
  - target: {fileID: 0}
    propertyPath: m_SavedProperties.m_Floats.Array.data[109].second
    value: 0
    objectReference: {fileID: 0}
  - target: {fileID: 0}
    propertyPath: m_SavedProperties.m_Floats.Array.data[110].first
    value: _ReflectionIntensity
    objectReference: {fileID: 0}
  - target: {fileID: 0}
    propertyPath: m_SavedProperties.m_Floats.Array.data[110].second
    value: 0
    objectReference: {fileID: 0}
  - target: {fileID: 0}
    propertyPath: m_SavedProperties.m_Floats.Array.data[111].first
    value: _ReflectionRoughtness
    objectReference: {fileID: 0}
  - target: {fileID: 0}
    propertyPath: m_SavedProperties.m_Floats.Array.data[111].second
    value: 0
    objectReference: {fileID: 0}
  - target: {fileID: 0}
    propertyPath: m_SavedProperties.m_Floats.Array.data[112].first
    value: _RefractionIntensity
    objectReference: {fileID: 0}
  - target: {fileID: 0}
    propertyPath: m_SavedProperties.m_Floats.Array.data[112].second
    value: 1
    objectReference: {fileID: 0}
  - target: {fileID: 0}
    propertyPath: m_SavedProperties.m_Floats.Array.data[113].first
    value: _RimLightColorPower
    objectReference: {fileID: 0}
  - target: {fileID: 0}
    propertyPath: m_SavedProperties.m_Floats.Array.data[113].second
    value: 10
    objectReference: {fileID: 0}
  - target: {fileID: 0}
    propertyPath: m_SavedProperties.m_Floats.Array.data[114].first
    value: _RimLightInLight
    objectReference: {fileID: 0}
  - target: {fileID: 0}
    propertyPath: m_SavedProperties.m_Floats.Array.data[114].second
    value: 1
    objectReference: {fileID: 0}
  - target: {fileID: 0}
    propertyPath: m_SavedProperties.m_Floats.Array.data[115].first
    value: _RimLightSoftness
    objectReference: {fileID: 0}
  - target: {fileID: 0}
    propertyPath: m_SavedProperties.m_Floats.Array.data[115].second
    value: 1
    objectReference: {fileID: 0}
  - target: {fileID: 0}
    propertyPath: m_SavedProperties.m_Floats.Array.data[116].first
    value: _RimLightUnfill
    objectReference: {fileID: 0}
  - target: {fileID: 0}
    propertyPath: m_SavedProperties.m_Floats.Array.data[116].second
    value: 1.5
    objectReference: {fileID: 0}
  - target: {fileID: 0}
    propertyPath: m_SavedProperties.m_Floats.Array.data[117].first
    value: _SPECIN
    objectReference: {fileID: 0}
  - target: {fileID: 0}
    propertyPath: m_SavedProperties.m_Floats.Array.data[117].second
    value: 1
    objectReference: {fileID: 0}
  - target: {fileID: 0}
    propertyPath: m_SavedProperties.m_Floats.Array.data[118].first
    value: _SPECMODE
    objectReference: {fileID: 0}
  - target: {fileID: 0}
    propertyPath: m_SavedProperties.m_Floats.Array.data[118].second
    value: 0
    objectReference: {fileID: 0}
  - target: {fileID: 0}
    propertyPath: m_SavedProperties.m_Floats.Array.data[119].first
    value: _STIL
    objectReference: {fileID: 0}
  - target: {fileID: 0}
    propertyPath: m_SavedProperties.m_Floats.Array.data[119].second
    value: 0
    objectReference: {fileID: 0}
  - target: {fileID: 0}
    propertyPath: m_SavedProperties.m_Floats.Array.data[120].first
    value: _Saturation
    objectReference: {fileID: 0}
  - target: {fileID: 0}
    propertyPath: m_SavedProperties.m_Floats.Array.data[120].second
    value: 1
    objectReference: {fileID: 0}
  - target: {fileID: 0}
    propertyPath: m_SavedProperties.m_Floats.Array.data[121].first
    value: _SelfLitHighContrast
    objectReference: {fileID: 0}
  - target: {fileID: 0}
    propertyPath: m_SavedProperties.m_Floats.Array.data[121].second
    value: 1
    objectReference: {fileID: 0}
  - target: {fileID: 0}
    propertyPath: m_SavedProperties.m_Floats.Array.data[122].first
    value: _SelfLitIntensity
    objectReference: {fileID: 0}
  - target: {fileID: 0}
    propertyPath: m_SavedProperties.m_Floats.Array.data[122].second
    value: 0
    objectReference: {fileID: 0}
  - target: {fileID: 0}
    propertyPath: m_SavedProperties.m_Floats.Array.data[123].first
    value: _SelfLitPower
    objectReference: {fileID: 0}
  - target: {fileID: 0}
    propertyPath: m_SavedProperties.m_Floats.Array.data[123].second
    value: 2
    objectReference: {fileID: 0}
  - target: {fileID: 0}
    propertyPath: m_SavedProperties.m_Floats.Array.data[124].first
    value: _SelfShadowAffectedByLightShadowStrength
    objectReference: {fileID: 0}
  - target: {fileID: 0}
    propertyPath: m_SavedProperties.m_Floats.Array.data[124].second
    value: 0
    objectReference: {fileID: 0}
  - target: {fileID: 0}
    propertyPath: m_SavedProperties.m_Floats.Array.data[125].first
    value: _SelfShadowColorPower
    objectReference: {fileID: 0}
  - target: {fileID: 0}
    propertyPath: m_SavedProperties.m_Floats.Array.data[125].second
    value: 1
    objectReference: {fileID: 0}
  - target: {fileID: 0}
    propertyPath: m_SavedProperties.m_Floats.Array.data[126].first
    value: _SelfShadowHardness
    objectReference: {fileID: 0}
  - target: {fileID: 0}
    propertyPath: m_SavedProperties.m_Floats.Array.data[126].second
    value: 1
    objectReference: {fileID: 0}
  - target: {fileID: 0}
    propertyPath: m_SavedProperties.m_Floats.Array.data[127].first
    value: _SelfShadowIntensity
    objectReference: {fileID: 0}
  - target: {fileID: 0}
    propertyPath: m_SavedProperties.m_Floats.Array.data[127].second
    value: 1
    objectReference: {fileID: 0}
  - target: {fileID: 0}
    propertyPath: m_SavedProperties.m_Floats.Array.data[128].first
    value: _SelfShadowRealTimeShadowColorPower
    objectReference: {fileID: 0}
  - target: {fileID: 0}
    propertyPath: m_SavedProperties.m_Floats.Array.data[128].second
    value: 1
    objectReference: {fileID: 0}
  - target: {fileID: 0}
    propertyPath: m_SavedProperties.m_Floats.Array.data[129].first
    value: _SelfShadowRealtimeShadowIntensity
    objectReference: {fileID: 0}
  - target: {fileID: 0}
    propertyPath: m_SavedProperties.m_Floats.Array.data[129].second
    value: 1
    objectReference: {fileID: 0}
  - target: {fileID: 0}
    propertyPath: m_SavedProperties.m_Floats.Array.data[130].first
    value: _SelfShadowShadowTAtViewDirection
    objectReference: {fileID: 0}
  - target: {fileID: 0}
    propertyPath: m_SavedProperties.m_Floats.Array.data[130].second
    value: 0
    objectReference: {fileID: 0}
  - target: {fileID: 0}
    propertyPath: m_SavedProperties.m_Floats.Array.data[131].first
    value: _SelfShadowThreshold
    objectReference: {fileID: 0}
  - target: {fileID: 0}
    propertyPath: m_SavedProperties.m_Floats.Array.data[131].second
    value: 0.85
    objectReference: {fileID: 0}
  - target: {fileID: 0}
    propertyPath: m_SavedProperties.m_Floats.Array.data[132].first
    value: _ShadowColorTexturePower
    objectReference: {fileID: 0}
  - target: {fileID: 0}
    propertyPath: m_SavedProperties.m_Floats.Array.data[132].second
    value: 0
    objectReference: {fileID: 0}
  - target: {fileID: 0}
    propertyPath: m_SavedProperties.m_Floats.Array.data[133].first
    value: _ShadowHardness
    objectReference: {fileID: 0}
  - target: {fileID: 0}
    propertyPath: m_SavedProperties.m_Floats.Array.data[133].second
    value: 0
    objectReference: {fileID: 0}
  - target: {fileID: 0}
    propertyPath: m_SavedProperties.m_Floats.Array.data[134].first
    value: _ShadowTColorPower
    objectReference: {fileID: 0}
  - target: {fileID: 0}
    propertyPath: m_SavedProperties.m_Floats.Array.data[134].second
    value: 1
    objectReference: {fileID: 0}
  - target: {fileID: 0}
    propertyPath: m_SavedProperties.m_Floats.Array.data[135].first
    value: _ShadowTHardness
    objectReference: {fileID: 0}
  - target: {fileID: 0}
    propertyPath: m_SavedProperties.m_Floats.Array.data[135].second
    value: 1
    objectReference: {fileID: 0}
  - target: {fileID: 0}
    propertyPath: m_SavedProperties.m_Floats.Array.data[136].first
    value: _ShadowTIntensity
    objectReference: {fileID: 0}
  - target: {fileID: 0}
    propertyPath: m_SavedProperties.m_Floats.Array.data[136].second
    value: 1
    objectReference: {fileID: 0}
  - target: {fileID: 0}
    propertyPath: m_SavedProperties.m_Floats.Array.data[137].first
    value: _ShadowTLightThreshold
    objectReference: {fileID: 0}
  - target: {fileID: 0}
    propertyPath: m_SavedProperties.m_Floats.Array.data[137].second
    value: 50
    objectReference: {fileID: 0}
  - target: {fileID: 0}
    propertyPath: m_SavedProperties.m_Floats.Array.data[138].first
    value: _ShadowTShadowThreshold
    objectReference: {fileID: 0}
  - target: {fileID: 0}
    propertyPath: m_SavedProperties.m_Floats.Array.data[138].second
    value: 0
    objectReference: {fileID: 0}
  - target: {fileID: 0}
    propertyPath: m_SavedProperties.m_Floats.Array.data[139].first
    value: _ShowInAmbientLightShadowIntensity
    objectReference: {fileID: 0}
  - target: {fileID: 0}
    propertyPath: m_SavedProperties.m_Floats.Array.data[139].second
    value: 1
    objectReference: {fileID: 0}
  - target: {fileID: 0}
    propertyPath: m_SavedProperties.m_Floats.Array.data[140].first
    value: _ShowInAmbientLightShadowThreshold
    objectReference: {fileID: 0}
  - target: {fileID: 0}
    propertyPath: m_SavedProperties.m_Floats.Array.data[140].second
    value: 0.4
    objectReference: {fileID: 0}
  - target: {fileID: 0}
    propertyPath: m_SavedProperties.m_Floats.Array.data[141].first
    value: _ShowNormal
    objectReference: {fileID: 0}
  - target: {fileID: 0}
    propertyPath: m_SavedProperties.m_Floats.Array.data[141].second
    value: 0
    objectReference: {fileID: 0}
  - target: {fileID: 0}
    propertyPath: m_SavedProperties.m_Floats.Array.data[142].first
    value: _SmoothObjectNormal
    objectReference: {fileID: 0}
  - target: {fileID: 0}
    propertyPath: m_SavedProperties.m_Floats.Array.data[142].second
    value: 0
    objectReference: {fileID: 0}
  - target: {fileID: 0}
    propertyPath: m_SavedProperties.m_Floats.Array.data[143].first
    value: _Smoothness
    objectReference: {fileID: 0}
  - target: {fileID: 0}
    propertyPath: m_SavedProperties.m_Floats.Array.data[143].second
    value: 0.5
    objectReference: {fileID: 0}
  - target: {fileID: 0}
    propertyPath: m_SavedProperties.m_Floats.Array.data[144].first
    value: _SmoothnessTextureChannel
    objectReference: {fileID: 0}
  - target: {fileID: 0}
    propertyPath: m_SavedProperties.m_Floats.Array.data[144].second
    value: 0
    objectReference: {fileID: 0}
  - target: {fileID: 0}
    propertyPath: m_SavedProperties.m_Floats.Array.data[145].first
    value: _SpecularHighlights
    objectReference: {fileID: 0}
  - target: {fileID: 0}
    propertyPath: m_SavedProperties.m_Floats.Array.data[145].second
    value: 1
    objectReference: {fileID: 0}
  - target: {fileID: 0}
    propertyPath: m_SavedProperties.m_Floats.Array.data[146].first
    value: _SrcBlend
    objectReference: {fileID: 0}
  - target: {fileID: 0}
    propertyPath: m_SavedProperties.m_Floats.Array.data[146].second
    value: 1
    objectReference: {fileID: 0}
  - target: {fileID: 0}
    propertyPath: m_SavedProperties.m_Floats.Array.data[147].first
    value: _Surface
    objectReference: {fileID: 0}
  - target: {fileID: 0}
    propertyPath: m_SavedProperties.m_Floats.Array.data[147].second
    value: 0
    objectReference: {fileID: 0}
  - target: {fileID: 0}
    propertyPath: m_SavedProperties.m_Floats.Array.data[148].first
    value: _TEXMCOLINT
    objectReference: {fileID: 0}
  - target: {fileID: 0}
    propertyPath: m_SavedProperties.m_Floats.Array.data[148].second
    value: 1
    objectReference: {fileID: 0}
  - target: {fileID: 0}
    propertyPath: m_SavedProperties.m_Floats.Array.data[149].first
    value: _TextureIntesnity
    objectReference: {fileID: 0}
  - target: {fileID: 0}
    propertyPath: m_SavedProperties.m_Floats.Array.data[149].second
    value: 0
    objectReference: {fileID: 0}
  - target: {fileID: 0}
    propertyPath: m_SavedProperties.m_Floats.Array.data[150].first
    value: _TexturePatternStyle
    objectReference: {fileID: 0}
  - target: {fileID: 0}
    propertyPath: m_SavedProperties.m_Floats.Array.data[150].second
    value: 0
    objectReference: {fileID: 0}
  - target: {fileID: 0}
    propertyPath: m_SavedProperties.m_Floats.Array.data[151].first
    value: _TransparentThreshold
    objectReference: {fileID: 0}
  - target: {fileID: 0}
    propertyPath: m_SavedProperties.m_Floats.Array.data[151].second
    value: 0
    objectReference: {fileID: 0}
  - target: {fileID: 0}
    propertyPath: m_SavedProperties.m_Floats.Array.data[152].first
    value: _UseSecondaryCutout
    objectReference: {fileID: 0}
  - target: {fileID: 0}
    propertyPath: m_SavedProperties.m_Floats.Array.data[152].second
    value: 0
    objectReference: {fileID: 0}
  - target: {fileID: 0}
    propertyPath: m_SavedProperties.m_Floats.Array.data[153].first
    value: _UseTLB
    objectReference: {fileID: 0}
  - target: {fileID: 0}
    propertyPath: m_SavedProperties.m_Floats.Array.data[153].second
    value: 0
    objectReference: {fileID: 0}
  - target: {fileID: 0}
    propertyPath: m_SavedProperties.m_Floats.Array.data[154].first
    value: _VertexColorBlueAffectOutlineWitdh
    objectReference: {fileID: 0}
  - target: {fileID: 0}
    propertyPath: m_SavedProperties.m_Floats.Array.data[154].second
    value: 0
    objectReference: {fileID: 0}
  - target: {fileID: 0}
    propertyPath: m_SavedProperties.m_Floats.Array.data[155].first
    value: _VertexColorGreenControlSelfShadowThreshold
    objectReference: {fileID: 0}
  - target: {fileID: 0}
    propertyPath: m_SavedProperties.m_Floats.Array.data[155].second
    value: 0
    objectReference: {fileID: 0}
  - target: {fileID: 0}
    propertyPath: m_SavedProperties.m_Floats.Array.data[156].first
    value: _VertexColorRedControlSmoothObjectNormal
    objectReference: {fileID: 0}
  - target: {fileID: 0}
    propertyPath: m_SavedProperties.m_Floats.Array.data[156].second
    value: 0
    objectReference: {fileID: 0}
  - target: {fileID: 0}
    propertyPath: m_SavedProperties.m_Floats.Array.data[157].first
    value: _WorkflowMode
    objectReference: {fileID: 0}
  - target: {fileID: 0}
    propertyPath: m_SavedProperties.m_Floats.Array.data[157].second
    value: 1
    objectReference: {fileID: 0}
  - target: {fileID: 0}
    propertyPath: m_SavedProperties.m_Floats.Array.data[158].first
    value: _XYZHardness
    objectReference: {fileID: 0}
  - target: {fileID: 0}
    propertyPath: m_SavedProperties.m_Floats.Array.data[158].second
    value: 14
    objectReference: {fileID: 0}
  - target: {fileID: 0}
    propertyPath: m_SavedProperties.m_Floats.Array.data[159].first
    value: _ZWrite
    objectReference: {fileID: 0}
  - target: {fileID: 0}
    propertyPath: m_SavedProperties.m_Floats.Array.data[159].second
    value: 1
    objectReference: {fileID: 0}
  - target: {fileID: 0}
    propertyPath: m_SavedProperties.m_Colors.Array.size
    value: 18
    objectReference: {fileID: 0}
  - target: {fileID: 0}
    propertyPath: m_SavedProperties.m_Colors.Array.data[0].first
    value: _BaseColor
    objectReference: {fileID: 0}
  - target: {fileID: 0}
    propertyPath: m_SavedProperties.m_Colors.Array.data[0].second.r
    value: 1
    objectReference: {fileID: 0}
  - target: {fileID: 0}
    propertyPath: m_SavedProperties.m_Colors.Array.data[0].second.g
    value: 1
    objectReference: {fileID: 0}
  - target: {fileID: 0}
    propertyPath: m_SavedProperties.m_Colors.Array.data[0].second.b
    value: 1
    objectReference: {fileID: 0}
  - target: {fileID: 0}
    propertyPath: m_SavedProperties.m_Colors.Array.data[0].second.a
    value: 1
    objectReference: {fileID: 0}
  - target: {fileID: 0}
    propertyPath: m_SavedProperties.m_Colors.Array.data[1].first
    value: _Color
    objectReference: {fileID: 0}
  - target: {fileID: 0}
    propertyPath: m_SavedProperties.m_Colors.Array.data[1].second.r
    value: 1
    objectReference: {fileID: 0}
  - target: {fileID: 0}
    propertyPath: m_SavedProperties.m_Colors.Array.data[1].second.g
    value: 1
    objectReference: {fileID: 0}
  - target: {fileID: 0}
    propertyPath: m_SavedProperties.m_Colors.Array.data[1].second.b
    value: 1
    objectReference: {fileID: 0}
  - target: {fileID: 0}
    propertyPath: m_SavedProperties.m_Colors.Array.data[1].second.a
    value: 1
    objectReference: {fileID: 0}
  - target: {fileID: 0}
    propertyPath: m_SavedProperties.m_Colors.Array.data[2].first
    value: _CustomLightDirection
    objectReference: {fileID: 0}
  - target: {fileID: 0}
    propertyPath: m_SavedProperties.m_Colors.Array.data[2].second.r
    value: 0
    objectReference: {fileID: 0}
  - target: {fileID: 0}
    propertyPath: m_SavedProperties.m_Colors.Array.data[2].second.g
    value: 0
    objectReference: {fileID: 0}
  - target: {fileID: 0}
    propertyPath: m_SavedProperties.m_Colors.Array.data[2].second.b
    value: 10
    objectReference: {fileID: 0}
  - target: {fileID: 0}
    propertyPath: m_SavedProperties.m_Colors.Array.data[2].second.a
    value: 0
    objectReference: {fileID: 0}
  - target: {fileID: 0}
    propertyPath: m_SavedProperties.m_Colors.Array.data[3].first
    value: _DepthColor
    objectReference: {fileID: 0}
  - target: {fileID: 0}
    propertyPath: m_SavedProperties.m_Colors.Array.data[3].second.r
    value: 0.5
    objectReference: {fileID: 0}
  - target: {fileID: 0}
    propertyPath: m_SavedProperties.m_Colors.Array.data[3].second.g
    value: 0.5
    objectReference: {fileID: 0}
  - target: {fileID: 0}
    propertyPath: m_SavedProperties.m_Colors.Array.data[3].second.b
    value: 0.5
    objectReference: {fileID: 0}
  - target: {fileID: 0}
    propertyPath: m_SavedProperties.m_Colors.Array.data[3].second.a
    value: 1
    objectReference: {fileID: 0}
  - target: {fileID: 0}
    propertyPath: m_SavedProperties.m_Colors.Array.data[4].first
    value: _EmissionColor
    objectReference: {fileID: 0}
  - target: {fileID: 0}
    propertyPath: m_SavedProperties.m_Colors.Array.data[4].second.r
    value: 0
    objectReference: {fileID: 0}
  - target: {fileID: 0}
    propertyPath: m_SavedProperties.m_Colors.Array.data[4].second.g
    value: 0
    objectReference: {fileID: 0}
  - target: {fileID: 0}
    propertyPath: m_SavedProperties.m_Colors.Array.data[4].second.b
    value: 0
    objectReference: {fileID: 0}
  - target: {fileID: 0}
    propertyPath: m_SavedProperties.m_Colors.Array.data[4].second.a
    value: 1
    objectReference: {fileID: 0}
  - target: {fileID: 0}
    propertyPath: m_SavedProperties.m_Colors.Array.data[5].first
    value: _GlossColor
    objectReference: {fileID: 0}
  - target: {fileID: 0}
    propertyPath: m_SavedProperties.m_Colors.Array.data[5].second.r
    value: 1
    objectReference: {fileID: 0}
  - target: {fileID: 0}
    propertyPath: m_SavedProperties.m_Colors.Array.data[5].second.g
    value: 1
    objectReference: {fileID: 0}
  - target: {fileID: 0}
    propertyPath: m_SavedProperties.m_Colors.Array.data[5].second.b
    value: 1
    objectReference: {fileID: 0}
  - target: {fileID: 0}
    propertyPath: m_SavedProperties.m_Colors.Array.data[5].second.a
    value: 1
    objectReference: {fileID: 0}
  - target: {fileID: 0}
    propertyPath: m_SavedProperties.m_Colors.Array.data[6].first
    value: _HighlightColor
    objectReference: {fileID: 0}
  - target: {fileID: 0}
    propertyPath: m_SavedProperties.m_Colors.Array.data[6].second.r
    value: 1
    objectReference: {fileID: 0}
  - target: {fileID: 0}
    propertyPath: m_SavedProperties.m_Colors.Array.data[6].second.g
    value: 1
    objectReference: {fileID: 0}
  - target: {fileID: 0}
    propertyPath: m_SavedProperties.m_Colors.Array.data[6].second.b
    value: 1
    objectReference: {fileID: 0}
  - target: {fileID: 0}
    propertyPath: m_SavedProperties.m_Colors.Array.data[6].second.a
    value: 1
    objectReference: {fileID: 0}
  - target: {fileID: 0}
    propertyPath: m_SavedProperties.m_Colors.Array.data[7].first
    value: _MainColor
    objectReference: {fileID: 0}
  - target: {fileID: 0}
    propertyPath: m_SavedProperties.m_Colors.Array.data[7].second.r
    value: 0.6886792
    objectReference: {fileID: 0}
  - target: {fileID: 0}
    propertyPath: m_SavedProperties.m_Colors.Array.data[7].second.g
    value: 0.6886792
    objectReference: {fileID: 0}
  - target: {fileID: 0}
    propertyPath: m_SavedProperties.m_Colors.Array.data[7].second.b
    value: 0.6886792
    objectReference: {fileID: 0}
  - target: {fileID: 0}
    propertyPath: m_SavedProperties.m_Colors.Array.data[7].second.a
    value: 1
    objectReference: {fileID: 0}
  - target: {fileID: 0}
    propertyPath: m_SavedProperties.m_Colors.Array.data[8].first
    value: _OutlineColor
    objectReference: {fileID: 0}
  - target: {fileID: 0}
    propertyPath: m_SavedProperties.m_Colors.Array.data[8].second.r
    value: 0
    objectReference: {fileID: 0}
  - target: {fileID: 0}
    propertyPath: m_SavedProperties.m_Colors.Array.data[8].second.g
    value: 0
    objectReference: {fileID: 0}
  - target: {fileID: 0}
    propertyPath: m_SavedProperties.m_Colors.Array.data[8].second.b
    value: 0
    objectReference: {fileID: 0}
  - target: {fileID: 0}
    propertyPath: m_SavedProperties.m_Colors.Array.data[8].second.a
    value: 1
    objectReference: {fileID: 0}
  - target: {fileID: 0}
    propertyPath: m_SavedProperties.m_Colors.Array.data[9].first
    value: _OutlineOffset
    objectReference: {fileID: 0}
  - target: {fileID: 0}
    propertyPath: m_SavedProperties.m_Colors.Array.data[9].second.r
    value: 0
    objectReference: {fileID: 0}
  - target: {fileID: 0}
    propertyPath: m_SavedProperties.m_Colors.Array.data[9].second.g
    value: 0
    objectReference: {fileID: 0}
  - target: {fileID: 0}
    propertyPath: m_SavedProperties.m_Colors.Array.data[9].second.b
    value: 0
    objectReference: {fileID: 0}
  - target: {fileID: 0}
    propertyPath: m_SavedProperties.m_Colors.Array.data[9].second.a
    value: 1
    objectReference: {fileID: 0}
  - target: {fileID: 0}
    propertyPath: m_SavedProperties.m_Colors.Array.data[10].first
    value: _OverallShadowColor
    objectReference: {fileID: 0}
  - target: {fileID: 0}
    propertyPath: m_SavedProperties.m_Colors.Array.data[10].second.r
    value: 0.066037714
    objectReference: {fileID: 0}
  - target: {fileID: 0}
    propertyPath: m_SavedProperties.m_Colors.Array.data[10].second.g
    value: 0.066037714
    objectReference: {fileID: 0}
  - target: {fileID: 0}
    propertyPath: m_SavedProperties.m_Colors.Array.data[10].second.b
    value: 0.066037714
    objectReference: {fileID: 0}
  - target: {fileID: 0}
    propertyPath: m_SavedProperties.m_Colors.Array.data[10].second.a
    value: 1
    objectReference: {fileID: 0}
  - target: {fileID: 0}
    propertyPath: m_SavedProperties.m_Colors.Array.data[11].first
    value: _RimLightColor
    objectReference: {fileID: 0}
  - target: {fileID: 0}
    propertyPath: m_SavedProperties.m_Colors.Array.data[11].second.r
    value: 1
    objectReference: {fileID: 0}
  - target: {fileID: 0}
    propertyPath: m_SavedProperties.m_Colors.Array.data[11].second.g
    value: 1
    objectReference: {fileID: 0}
  - target: {fileID: 0}
    propertyPath: m_SavedProperties.m_Colors.Array.data[11].second.b
    value: 1
    objectReference: {fileID: 0}
  - target: {fileID: 0}
    propertyPath: m_SavedProperties.m_Colors.Array.data[11].second.a
    value: 1
    objectReference: {fileID: 0}
  - target: {fileID: 0}
    propertyPath: m_SavedProperties.m_Colors.Array.data[12].first
    value: _SelfLitColor
    objectReference: {fileID: 0}
  - target: {fileID: 0}
    propertyPath: m_SavedProperties.m_Colors.Array.data[12].second.r
    value: 1
    objectReference: {fileID: 0}
  - target: {fileID: 0}
    propertyPath: m_SavedProperties.m_Colors.Array.data[12].second.g
    value: 1
    objectReference: {fileID: 0}
  - target: {fileID: 0}
    propertyPath: m_SavedProperties.m_Colors.Array.data[12].second.b
    value: 1
    objectReference: {fileID: 0}
  - target: {fileID: 0}
    propertyPath: m_SavedProperties.m_Colors.Array.data[12].second.a
    value: 1
    objectReference: {fileID: 0}
  - target: {fileID: 0}
    propertyPath: m_SavedProperties.m_Colors.Array.data[13].first
    value: _SelfShadowColor
    objectReference: {fileID: 0}
  - target: {fileID: 0}
    propertyPath: m_SavedProperties.m_Colors.Array.data[13].second.r
    value: 1
    objectReference: {fileID: 0}
  - target: {fileID: 0}
    propertyPath: m_SavedProperties.m_Colors.Array.data[13].second.g
    value: 1
    objectReference: {fileID: 0}
  - target: {fileID: 0}
    propertyPath: m_SavedProperties.m_Colors.Array.data[13].second.b
    value: 1
    objectReference: {fileID: 0}
  - target: {fileID: 0}
    propertyPath: m_SavedProperties.m_Colors.Array.data[13].second.a
    value: 1
    objectReference: {fileID: 0}
  - target: {fileID: 0}
    propertyPath: m_SavedProperties.m_Colors.Array.data[14].first
    value: _SelfShadowRealTimeShadowColor
    objectReference: {fileID: 0}
  - target: {fileID: 0}
    propertyPath: m_SavedProperties.m_Colors.Array.data[14].second.r
    value: 1
    objectReference: {fileID: 0}
  - target: {fileID: 0}
    propertyPath: m_SavedProperties.m_Colors.Array.data[14].second.g
    value: 1
    objectReference: {fileID: 0}
  - target: {fileID: 0}
    propertyPath: m_SavedProperties.m_Colors.Array.data[14].second.b
    value: 1
    objectReference: {fileID: 0}
  - target: {fileID: 0}
    propertyPath: m_SavedProperties.m_Colors.Array.data[14].second.a
    value: 1
    objectReference: {fileID: 0}
  - target: {fileID: 0}
    propertyPath: m_SavedProperties.m_Colors.Array.data[15].first
    value: _ShadowTColor
    objectReference: {fileID: 0}
  - target: {fileID: 0}
    propertyPath: m_SavedProperties.m_Colors.Array.data[15].second.r
    value: 1
    objectReference: {fileID: 0}
  - target: {fileID: 0}
    propertyPath: m_SavedProperties.m_Colors.Array.data[15].second.g
    value: 1
    objectReference: {fileID: 0}
  - target: {fileID: 0}
    propertyPath: m_SavedProperties.m_Colors.Array.data[15].second.b
    value: 1
    objectReference: {fileID: 0}
  - target: {fileID: 0}
    propertyPath: m_SavedProperties.m_Colors.Array.data[15].second.a
    value: 1
    objectReference: {fileID: 0}
  - target: {fileID: 0}
    propertyPath: m_SavedProperties.m_Colors.Array.data[16].first
    value: _SpecColor
    objectReference: {fileID: 0}
  - target: {fileID: 0}
    propertyPath: m_SavedProperties.m_Colors.Array.data[16].second.r
    value: 0.2
    objectReference: {fileID: 0}
  - target: {fileID: 0}
    propertyPath: m_SavedProperties.m_Colors.Array.data[16].second.g
    value: 0.2
    objectReference: {fileID: 0}
  - target: {fileID: 0}
    propertyPath: m_SavedProperties.m_Colors.Array.data[16].second.b
    value: 0.2
    objectReference: {fileID: 0}
  - target: {fileID: 0}
    propertyPath: m_SavedProperties.m_Colors.Array.data[16].second.a
    value: 1
    objectReference: {fileID: 0}
  - target: {fileID: 0}
    propertyPath: m_SavedProperties.m_Colors.Array.data[17].first
    value: _XYZPosition
    objectReference: {fileID: 0}
  - target: {fileID: 0}
    propertyPath: m_SavedProperties.m_Colors.Array.data[17].second.r
    value: 0
    objectReference: {fileID: 0}
  - target: {fileID: 0}
    propertyPath: m_SavedProperties.m_Colors.Array.data[17].second.g
    value: 0
    objectReference: {fileID: 0}
  - target: {fileID: 0}
    propertyPath: m_SavedProperties.m_Colors.Array.data[17].second.b
    value: 0
    objectReference: {fileID: 0}
  - target: {fileID: 0}
    propertyPath: m_SavedProperties.m_Colors.Array.data[17].second.a
    value: 0
    objectReference: {fileID: 0}
